HUD frame time nsec:,16673000

Range Index,Elapsed Time, First Event,Last Event
0,89472,5,5
1,1420224,15,15
2,1344,35,35
3,1344,54,54
4,1312,73,73
5,1344,92,92
6,1344,111,111
7,1344,130,130
8,1344,149,149
9,94688,151,151
10,576032,187,187
11,19552,228,228
12,1312,232,232
13,12435360,250,250
