# Blender v2.79 (sub 0) OBJ File: 'goo_dekeyed.blend'
# www.blender.org
v 0.636692 -0.279419 0.098261
v 1.056291 -0.358773 0.118013
v 0.914082 -0.361722 0.556336
v 0.402915 -0.287939 0.715012
v 0.304492 -0.198730 -0.004633
v 0.906578 -0.337331 0.103057
v 1.292061 -0.356671 0.148171
v 0.679353 -0.328730 0.616145
v 0.262857 -0.371181 0.644647
v 0.284767 -0.333840 0.090723
v 0.837728 -0.702911 0.160855
v -1.284018 0.146816 0.135764
v 0.580652 -0.586743 0.611012
v 0.559187 -0.521048 0.102746
v 0.964114 -0.817081 0.153837
v 0.831467 -0.746972 0.486980
v 0.584190 -0.972988 0.169100
v 0.307612 -1.378018 0.420901
v 0.512708 -0.832885 0.673658
v 0.357654 -0.700322 0.098290
v 0.641656 -1.081317 0.137893
v 0.683866 -1.045515 0.539992
v 0.272491 -0.532521 0.595451
v 0.188545 -0.412977 0.041120
v 0.096089 -0.795408 0.093471
v 0.242271 -1.216485 0.127783
v 0.295887 -1.163628 0.634938
v 0.108983 -0.576380 0.583981
v 0.077428 -0.475082 0.060971
v 0.222551 -1.102037 0.142711
v 0.769104 -1.207494 0.371353
v 0.239483 -0.930148 0.648519
v -0.284992 -1.170621 0.103591
v -0.216563 -1.155321 0.484736
v -0.056142 -0.533055 0.618208
v -0.082673 -0.460333 0.023829
v -0.206377 -1.083693 0.137554
v -0.806269 -1.285506 0.241507
v -0.046726 -0.928507 0.674176
v -0.146578 -0.808316 0.136989
v -0.184476 -0.423218 0.018996
v -0.613391 -0.946778 0.096837
v -0.564641 1.055950 0.284785
v -0.355453 -0.810918 0.617289
v -0.411969 -0.735432 0.064083
v -0.734424 -1.036112 0.084786
v -0.564172 -1.013545 0.466113
v -0.159349 -0.477896 0.595716
v 0.285827 -1.415235 0.133634
v -0.596984 -0.562628 0.624069
v -0.579878 -0.548780 0.053688
v -1.040650 -0.736579 0.140554
v -0.911686 -0.696731 0.471134
v -0.229407 -0.386761 0.693280
v -0.266873 -0.324734 0.044024
v -0.874056 -0.695477 0.095735
v -0.665495 -0.272543 0.073009
v -1.160243 -0.360561 0.160483
v -1.068160 -0.297263 0.499963
v -0.300867 -0.244914 0.678637
v -0.300788 -0.198590 0.011277
v -0.999860 -0.325437 0.106421
v -1.397500 -0.348578 0.344217
v -0.682365 -0.323184 0.653372
v -0.961756 0.075753 0.500545
v -0.289036 -0.099881 0.606579
v -0.283390 -0.045494 -0.000438
v -0.918277 0.071245 0.120575
v 0.779855 -1.246985 0.132012
v -0.663318 0.019872 0.606137
v -0.619363 0.018431 0.075823
v -1.040567 0.055374 0.173660
v -0.217863 0.097992 0.020547
v -0.669846 0.481807 0.114661
v -0.857506 -1.248378 0.103932
v -0.421874 0.235672 0.628731
v -0.442536 0.274551 0.098398
v -0.814863 0.597241 0.109707
v -0.650545 0.414093 0.485122
v -0.242566 0.092759 0.727046
v -0.228494 0.469579 0.643036
v -0.240977 0.513259 0.082621
v -0.473572 0.915741 0.063118
v -0.349171 0.773171 0.427580
v -0.114466 0.170287 0.664963
v -0.104809 0.187619 0.013291
v -0.396111 0.799596 0.058616
v -0.600048 1.160131 0.104537
v -0.058682 0.643945 0.076879
v -0.111761 1.107112 0.079786
v -0.037551 0.992481 0.435286
v -0.017130 0.266193 0.675783
v -0.021180 0.253365 0.046406
v -0.070790 0.950484 0.090495
v -0.257914 -1.369932 0.352293
v -0.075915 0.705178 0.548716
v 0.109399 0.229238 0.545298
v 0.082376 0.245656 0.043112
v 0.194973 0.939130 0.059925
v -0.932411 0.672215 0.323951
v 0.168466 0.640932 0.572933
v 0.156125 0.627841 0.089187
v 0.242344 1.098658 0.085262
v 0.259349 0.994789 0.511093
v 0.504388 0.771476 0.053015
v -1.413528 -0.399492 0.133160
v 0.390456 0.539067 0.628790
v 0.347526 0.502564 0.059992
v 0.560290 0.882680 0.088136
v 0.523963 0.796531 0.557939
v 0.196771 0.171706 0.516040
v 0.174696 0.190224 0.005108
v 0.517896 0.280899 0.054976
v 0.844085 0.541369 0.136211
v 0.760484 0.469394 0.565103
v 0.296613 0.038587 0.704573
v 0.256899 0.075058 0.002764
v 0.737106 0.458701 0.085481
v 0.318197 1.308896 0.398973
v 0.536136 0.280890 0.637735
v 1.017698 0.117308 0.134318
v 0.888952 0.059874 0.547811
v 0.331583 -0.106606 0.673025
v 0.311550 -0.067376 0.024230
v 0.878140 0.077014 0.102029
v -0.157993 1.299669 0.289534
v 0.644353 -0.034447 0.622331
v 0.612868 0.004265 0.065522
v 1.473184 -0.357288 0.264524
v 1.285371 -0.954286 0.235502
v 0.869756 -1.373039 0.218537
v 0.315225 -1.548923 0.217441
v -0.295598 -1.615133 0.179742
v -0.932718 -1.469685 0.147317
v -1.428134 -1.031270 0.149145
v -1.580061 -0.460221 0.162535
v -1.448602 0.199923 0.166607
v -1.152761 0.825609 0.157755
v -0.714933 1.292510 0.185316
v -0.213744 1.563434 0.207351
v 0.316342 1.520608 0.239340
v 0.798591 1.222878 0.254132
v 1.190506 0.774293 0.266923
v 1.444192 0.246833 0.286875
v 1.143819 -0.902176 0.148004
v 1.232778 -0.364730 0.428465
v 1.127462 -0.869605 0.378697
v 1.265797 0.192468 0.135165
v 1.201466 0.164978 0.464138
v 0.718462 1.093086 0.173251
v -1.248438 0.147265 0.345854
v 1.048363 0.679188 0.163006
v -1.248264 -0.935153 0.105223
v 0.677905 1.039721 0.402754
v 1.000213 0.644089 0.423100
v -0.171904 1.377598 0.107709
v -1.230949 -0.875351 0.299972
v 0.281591 1.341338 0.123965
v -0.968498 0.663428 0.125604
v -0.269634 -1.450090 0.114442
v 0.667471 -0.193305 0.592416
v 0.925119 -0.152171 0.556230
v -1.321001 -0.157575 0.338830
v 1.048831 -0.114419 0.116600
v 0.903732 -0.124991 0.110282
v 0.635865 -0.143161 0.111644
v 0.276610 -0.133389 0.053964
v 0.328147 -0.314410 0.691960
v 0.644886 -0.481751 0.580333
v 0.939866 -0.580561 0.567981
v 0.540801 -1.357949 0.128266
v 1.031368 -0.603305 0.130180
v 0.856983 -0.521803 0.105995
v 0.610610 -0.420704 0.079005
v 0.469839 -0.243068 0.072995
v 0.791402 -0.316670 0.162570
v 0.993348 -0.349778 0.083107
v 1.135208 -0.360232 0.152971
v 1.065879 -0.371108 0.498904
v 0.816799 -0.359494 0.626137
v 0.494381 -0.299477 0.552460
v 0.567986 -0.698558 0.663598
v 0.832292 -0.933622 0.482435
v 1.001054 -1.095005 0.150510
v 0.861821 -0.977041 0.185231
v 0.697545 -0.840357 0.152895
v 0.500641 -0.643601 0.150876
v 0.445360 -0.501009 0.616809
v 0.432446 -0.429812 0.092244
v 0.735161 -0.639999 0.149745
v 0.889481 -0.751055 0.144308
v 0.983576 -0.825563 0.143671
v 0.991508 -0.819622 0.426012
v 0.726026 -0.671245 0.555201
v 0.383925 -0.894732 0.666769
v 0.503616 -1.123470 0.597027
v -1.079089 -1.130426 0.091206
v 0.450317 -1.158055 0.127673
v 0.386972 -1.039091 0.138611
v 0.265098 -0.768336 0.104853
v 0.464314 -0.845176 0.132119
v 0.644511 -1.028569 0.167307
v 0.717433 -1.160953 0.150197
v 0.719893 -1.102869 0.437986
v 0.608239 -0.950655 0.622922
v 0.413385 -0.696469 0.624447
v 0.304429 -0.569058 0.056309
v 0.089844 -0.938283 0.664438
v -0.003230 -1.182381 0.538066
v -0.586970 -1.364334 0.100253
v -0.000934 -1.253305 0.106083
v -0.000367 -1.090944 0.142994
v -0.008018 -0.809805 0.138867
v 0.112709 -0.642360 0.139502
v 0.183508 -0.978874 0.166422
v 0.244783 -1.177655 0.130753
v 0.224531 -1.277720 0.110644
v 0.245300 -1.228766 0.494661
v 0.267736 -1.061409 0.694796
v 0.211426 -0.769444 0.599355
v -0.220084 -0.881727 0.646956
v -0.439218 -1.065485 0.444494
v -0.389755 1.296043 0.105106
v -0.496148 -1.160750 0.082855
v -0.448268 -0.975740 0.134047
v -0.278920 -0.793584 0.101489
v -0.286043 -1.133925 0.090329
v -0.247828 -1.298978 0.108618
v -0.276353 -1.207954 0.403811
v -0.167649 -1.072819 0.567674
v -0.066360 -0.748191 0.621974
v -0.086534 -0.657330 0.082134
v -0.222641 -0.938677 0.125331
v -0.532854 -0.667793 0.584721
v -0.736449 -0.917812 0.442021
v -0.821432 0.969775 0.093429
v -0.890613 -0.933123 0.103727
v -0.757158 -0.827937 0.100523
v -0.512179 -0.629211 0.071380
v -0.304164 -0.566435 0.062381
v -0.561428 -0.800473 0.096943
v -0.677066 -1.006243 0.093532
v -0.767793 -1.119527 0.090270
v -0.730429 -1.095516 0.300620
v -0.497162 -0.943561 0.526169
v -0.268077 -0.631605 0.630093
v -0.663818 -0.440980 0.635210
v -1.048231 -0.459583 0.487068
v -0.002793 -1.396949 0.366686
v -1.108544 -0.588495 0.153027
v -0.939354 -0.550509 0.100395
v -0.645481 -0.400038 0.072644
v -1.094922 -0.812753 0.152283
v -1.057151 -0.757839 0.380237
v -0.821919 -0.587473 0.546082
v -0.417028 -0.477325 0.670034
v -0.411786 -0.436983 0.029534
v -0.760913 -0.604348 0.086386
v -0.983024 -0.726169 0.102861
v -0.661036 -0.207941 0.663258
v -1.044655 -0.112432 0.507735
v -0.539855 -1.365984 0.273356
v -1.150608 -0.123357 0.168341
v -0.986245 -0.132973 0.103441
v -0.666465 -0.120072 0.063050
v -0.476807 -0.225429 0.040807
v -0.849380 -0.310406 0.082752
v -1.100528 -0.344155 0.129019
v -1.265023 -0.340693 0.172604
v -1.210773 -0.322007 0.419940
v -0.929979 -0.265449 0.579217
v -0.525221 -0.234219 0.686748
v -0.511047 0.076552 0.628277
v -0.784531 0.207881 0.541845
v -1.102303 0.400519 0.330896
v -0.909847 0.275012 0.178649
v -0.808184 0.268796 0.121300
v -0.529428 0.146572 0.097383
v -1.041653 0.033211 0.425879
v -0.789104 -0.015228 0.582508
v -0.470154 -0.040770 0.700407
v -0.448835 -0.000369 0.068076
v -0.768819 0.014278 0.087602
v -1.016518 0.095043 0.123110
v -1.150155 0.129899 0.175154
v -0.325614 0.367467 0.603670
v -0.445940 0.547681 0.472390
v -0.723201 0.841141 0.320243
v -0.630761 0.780072 0.089500
v -0.542586 0.678940 0.083534
v -0.331000 0.411787 0.120759
v -0.336468 0.205471 0.033803
v -0.549762 0.379786 0.111520
v -0.774815 0.565599 0.088074
v -0.857002 0.606277 0.132747
v -0.728587 0.446104 0.431285
v -0.538517 0.347179 0.607853
v -0.291958 0.109871 0.646276
v -0.117351 0.610860 0.617120
v -0.189691 0.936416 0.426806
v -1.381418 -0.128886 0.132265
v -0.285978 1.025822 0.070795
v -0.220777 0.866617 0.070094
v -0.138942 0.594923 0.091191
v -0.318164 0.780984 0.505741
v -0.133503 0.282920 0.669855
v -0.196454 0.401096 0.033031
v -0.299354 0.638512 0.086150
v -0.460324 0.905677 0.042371
v -0.492426 1.008440 0.102749
v -0.425333 0.878679 0.338689
v 0.067699 0.708182 0.599271
v 0.115624 1.007594 0.464055
v -1.375788 -0.660781 0.128533
v 0.041893 1.115969 0.070752
v 0.067634 0.973107 0.095534
v 0.043783 0.644810 0.102457
v -0.048714 0.459401 0.073772
v -0.088856 0.821088 0.081841
v -0.131476 1.041715 0.042249
v -0.151250 1.187621 0.087736
v -0.078304 1.147560 0.337399
v -0.013022 0.859213 0.544067
v -0.027866 0.485290 0.629830
v 0.264085 0.592268 0.587485
v 0.409277 0.926230 0.558966
v 0.525948 1.210714 0.434752
v 0.426943 1.025506 0.093981
v 0.365846 0.882915 0.054635
v 0.256203 0.587676 0.065896
v 0.135633 0.440897 0.554664
v 0.119960 0.430451 0.113965
v 0.167363 0.806007 0.073979
v 0.217153 1.034057 0.052824
v 0.244098 1.171318 0.104859
v 0.282465 1.125663 0.434239
v 0.235892 0.871844 0.576905
v 0.466305 0.418038 0.593414
v 0.646626 0.644147 0.546731
v -0.339118 1.212300 0.297789
v 0.730544 0.735546 0.127947
v 0.623057 0.623340 0.061825
v 0.439242 0.400947 0.025392
v 0.439986 0.659827 0.057004
v 0.538099 0.840457 0.057999
v 0.612715 0.952478 0.134299
v 0.592141 0.902680 0.481876
v 0.433520 0.669828 0.584740
v 0.296667 0.368937 0.618084
v 0.270007 0.345555 0.027144
v 0.596581 0.126045 0.628393
v 0.831395 0.264570 0.532258
v 0.068467 1.333644 0.327438
v 0.948619 0.337529 0.146046
v 0.819984 0.271927 0.095190
v 0.573088 0.144888 0.076175
v 0.383272 0.171426 0.043919
v 0.640659 0.381735 0.061031
v 0.805959 0.512159 0.111257
v 0.913827 0.588702 0.160902
v 0.846920 0.537483 0.467495
v 0.663471 0.388533 0.570550
v 0.416250 0.158072 0.556758
v 0.294417 -0.170046 0.685778
v 0.269579 -0.255523 0.002990
v 0.226231 -0.408429 0.667377
v 0.221970 -0.343392 0.062137
v 0.195001 -0.527028 0.644437
v 0.114335 -0.406273 0.030285
v -0.015044 -0.472157 0.535875
v -0.005007 -0.434879 0.081627
v -0.091840 -0.469649 0.599782
v -0.122502 -0.400113 0.058989
v -0.174301 -0.413629 0.645474
v -0.194433 -0.353668 0.019060
v -0.226499 -0.311702 0.633279
v -0.258742 -0.238616 0.044445
v -0.297809 -0.122099 0.613158
v -0.247552 -0.136707 0.037231
v -0.232820 -0.023023 0.721919
v -0.216766 0.001210 0.046960
v -0.137663 0.069481 0.735454
v -0.140746 0.113137 0.051206
v -0.048358 0.172905 0.639146
v -0.051122 0.173616 0.048015
v 0.065075 0.169706 0.579387
v 0.034022 0.209847 0.046154
v 0.148367 0.163087 0.564126
v 0.113930 0.183444 0.040083
v 0.222363 0.058105 0.686812
v 0.195936 0.099216 -0.004221
v 0.301849 -0.062016 0.699256
v 0.252629 -0.008036 0.049093
v 0.964511 0.102313 0.110129
v 1.098020 0.141020 0.151743
v 1.018530 0.103250 0.480363
v 0.777577 0.020864 0.605429
v 0.476996 -0.072731 0.635194
v 0.457227 -0.035138 0.028666
v 0.759854 0.043836 0.098680
v 1.489635 -0.046801 0.278754
v 1.414352 -0.670948 0.255251
v 1.443729 -0.355517 0.170668
v 1.395840 -0.360418 0.369347
v 1.090188 -1.179961 0.218618
v 1.284544 -0.943673 0.182464
v 1.256113 -0.940138 0.332660
v 0.601404 -1.474357 0.229529
v 0.839524 -1.346193 0.131686
v 0.810795 -1.317973 0.294080
v 0.024046 -1.593115 0.206693
v 0.321678 -1.533072 0.160726
v 0.284935 -1.482572 0.297385
v -0.644683 -1.542624 0.164213
v -0.295452 -1.592970 0.126271
v -0.289842 -1.516741 0.264169
v -1.214599 -1.277206 0.144421
v -0.933134 -1.419430 0.095617
v -0.905969 -1.402964 0.198896
v -1.547823 -0.756142 0.161988
v -1.390017 -1.017217 0.093794
v -1.382390 -0.949609 0.245192
v -1.556863 -0.114549 0.164664
v -1.565080 -0.422652 0.110764
v -1.542286 -0.398095 0.259872
v -1.305908 0.517044 0.166306
v -1.371680 0.160719 0.266738
v -1.432636 0.210536 0.112385
v -0.949914 1.066685 0.165805
v -1.131281 0.809734 0.098624
v -1.085160 0.769460 0.242553
v -0.491949 1.461979 0.183311
v -0.718345 1.275231 0.105873
v -0.686785 1.229453 0.241657
v 0.068801 1.588190 0.232043
v -0.219398 1.525130 0.121601
v -0.181590 1.494401 0.290705
v 0.580007 1.406001 0.263569
v 0.313691 1.492968 0.159012
v 0.316888 1.454142 0.335359
v 1.002160 1.006542 0.249916
v 0.788539 1.203930 0.198928
v 0.775077 1.173483 0.338850
v 1.342575 0.521301 0.284419
v 1.168460 0.759646 0.185218
v 1.128169 0.731854 0.360730
v 1.416148 0.238717 0.156303
v 1.366955 0.220893 0.423835
v -1.360531 -0.601761 0.337377
v 0.032552 -1.469309 0.130249
v -1.030384 -1.091928 0.286854
v 0.543067 -1.316856 0.405058
v 0.978732 -1.078366 0.347337
v -1.157233 0.440331 0.127021
v 1.304808 -0.075875 0.136763
v 1.238147 -0.632843 0.160256
v 1.205592 -0.644388 0.401058
v 1.239427 -0.094872 0.454358
v 1.178243 0.444960 0.143265
v 1.117677 0.411180 0.452303
v 0.527456 1.254093 0.159047
v 0.898541 0.900072 0.184528
v 0.842067 0.849933 0.391193
v 0.050070 1.386586 0.111126
v 0.470214 -0.183263 0.621589
v 0.800127 -0.165263 0.579088
v 1.051417 -0.129245 0.483875
v 1.131787 -0.103486 0.147651
v 0.993595 -0.118360 0.088494
v 0.791579 -0.135457 0.154068
v 0.470397 -0.141213 0.057226
v 0.006879 -0.107869 -0.029501
v 0.044495 -0.194328 0.664565
v 0.527846 -0.417690 0.656435
v 0.829132 -0.549546 0.608831
v 1.037801 -0.602067 0.466240
v 1.096475 -0.614394 0.156153
v 0.994121 -0.579368 0.122860
v 0.762465 -0.474061 0.144288
v 0.445239 -0.341654 0.100775
v 0.454800 -0.589987 0.646330
v 0.719158 -0.831445 0.619256
v 0.927869 -1.016023 0.409456
v 0.872104 -1.017680 0.151534
v 0.807416 -0.943882 0.167151
v 0.615658 -0.748103 0.172635
v 0.357312 -0.491116 0.117653
v 0.313917 -0.731545 0.668054
v 0.449095 -1.022369 0.645221
v 0.523260 -1.191808 0.508598
v 0.470745 -1.236287 0.117153
v 0.447798 -1.125151 0.132691
v 0.304564 -0.908349 0.138486
v 0.168863 -0.594181 0.042735
v 0.107129 -0.767507 0.582035
v 0.083992 -1.076576 0.647802
v 0.037687 -1.311411 0.459517
v -0.030249 -1.277735 0.114406
v 0.000526 -1.190932 0.115320
v -0.039701 -0.968555 0.138062
v 0.017946 -0.655239 0.094448
v -0.160606 -0.717301 0.652652
v -0.336854 -1.018761 0.541151
v -0.528460 -1.106832 0.363300
v -0.543857 -1.175694 0.105084
v -0.467896 -1.114193 0.097139
v -0.365550 -0.937083 0.109771
v -0.198680 -0.608426 0.051589
v -0.346290 -0.542882 0.625859
v -0.615040 -0.789894 0.573063
v -0.934529 -0.878703 0.358724
v -0.955453 -0.959778 0.137984
v -0.835832 -0.912303 0.082363
v -0.680296 -0.711862 0.086801
v -0.345901 -0.501369 0.052520
v -0.417924 -0.428637 0.711627
v -0.885098 -0.445673 0.562120
v -1.158428 -0.554841 0.413360
v -1.217154 -0.586394 0.162924
v -1.052371 -0.555119 0.129775
v -0.820531 -0.471310 0.078107
v -0.443869 -0.335187 0.057959
v -0.472568 -0.179255 0.705681
v -0.878055 -0.155757 0.592279
v -1.184112 -0.105268 0.422424
v -1.207450 -0.161965 0.170781
v -1.085272 -0.131743 0.139617
v -0.844377 -0.130886 0.088868
v -0.450573 -0.135957 0.043479
v -0.371802 0.028117 0.695175
v -0.663933 0.134712 0.615792
v -0.947875 0.326645 0.405142
v -0.995660 0.337152 0.173591
v -0.880123 0.289003 0.132100
v -0.708112 0.242100 0.087450
v -0.388476 0.093592 0.020319
v -0.260862 0.258128 0.622484
v -0.381348 0.499307 0.554929
v -0.613903 0.728185 0.358560
v -0.713475 0.859422 0.087937
v -0.547889 0.691114 0.103121
v -0.424946 0.543221 0.114758
v -0.244368 0.274502 0.070088
v -0.076516 0.345890 0.624637
v -0.137862 0.796649 0.539375
v -0.237402 1.057010 0.339216
v -0.335231 1.090463 0.079792
v -0.243080 0.969481 0.070537
v -0.171435 0.748024 0.087465
v -0.122663 0.420787 0.057588
v 0.054362 0.490951 0.584744
v 0.118554 0.872135 0.557512
v 0.107391 1.153750 0.375134
v 0.075186 1.224922 0.122751
v 0.067366 1.074698 0.073641
v 0.066900 0.829749 0.119198
v 0.053907 0.436406 0.074933
v 0.217794 0.396327 0.554120
v 0.368332 0.806421 0.617638
v 0.456677 1.044902 0.489101
v 0.448525 1.093896 0.122120
v 0.403345 0.971555 0.063297
v 0.299070 0.745557 0.044434
v 0.186079 0.386669 0.056207
v 0.349600 0.260797 0.671115
v 0.554794 0.540586 0.579929
v 0.737815 0.739138 0.476193
v 0.777986 0.785505 0.159344
v 0.685895 0.691332 0.083870
v 0.546886 0.531221 0.064036
v 0.324990 0.257960 0.047327
v 0.444703 0.035458 0.612269
v 0.724113 0.204684 0.551102
v 0.949841 0.327257 0.480964
v 1.022936 0.372408 0.155408
v 0.899550 0.313108 0.129161
v 0.710853 0.215388 0.073922
v 0.417772 0.066187 0.074993
v 1.410470 -0.062257 0.409580
v 1.460041 -0.050632 0.156332
v 1.336398 -0.658131 0.331493
v 1.373265 -0.655534 0.180302
v 1.098416 -1.175930 0.330229
v 1.101990 -1.166075 0.161874
v 0.574880 -1.424278 0.315659
v 0.574842 -1.452596 0.145368
v 0.042768 -1.515172 0.315029
v 0.019070 -1.539487 0.168275
v -0.613952 -1.484590 0.219774
v -0.628864 -1.521317 0.119378
v -1.185849 -1.170741 0.232916
v -1.211874 -1.209906 0.096919
v -1.486062 -0.719582 0.251918
v -1.529437 -0.713835 0.109974
v -1.486884 -0.123802 0.254064
v -1.524054 -0.119533 0.108277
v -1.248930 0.490602 0.248955
v -1.285110 0.510691 0.108863
v -0.886560 1.025013 0.246401
v -0.930152 1.065199 0.105558
v -0.441939 1.401503 0.263892
v -0.465691 1.442762 0.122929
v 0.048764 1.496708 0.295264
v 0.058926 1.550681 0.143430
v 0.589330 1.360034 0.376041
v 0.566697 1.378648 0.184897
v 0.952724 0.957497 0.319995
v 0.991947 0.993551 0.203557
v 1.270615 0.486248 0.408427
v 1.317228 0.509739 0.167094
vt 0.259531 0.197347
vt 0.286431 0.176872
vt 0.294470 0.195492
vt 0.324942 0.192000
vt 0.328696 0.215019
vt 0.298275 0.214452
vt 0.262383 0.212407
vt 0.426910 0.469986
vt 0.437786 0.507482
vt 0.425282 0.507122
vt 0.349741 0.145217
vt 0.381062 0.174337
vt 0.362573 0.175955
vt 0.389331 0.210052
vt 0.371647 0.209898
vt 0.358297 0.208257
vt 0.348684 0.175611
vt 0.633315 0.637889
vt 0.666302 0.599158
vt 0.672427 0.631435
vt 0.695299 0.596585
vt 0.700216 0.624856
vt 0.695725 0.651234
vt 0.666667 0.661853
vt 0.833556 0.290059
vt 0.849137 0.259238
vt 0.846172 0.292760
vt 0.824640 0.301623
vt 0.815680 0.272443
vt 0.831955 0.262619
vt 0.228322 0.211534
vt 0.221743 0.194534
vt 0.231496 0.201267
vt 0.251914 0.184047
vt 0.328536 0.156696
vt 0.339577 0.183166
vt 0.252467 0.816083
vt 0.264753 0.783640
vt 0.264753 0.819463
vt 0.346341 0.211459
vt 0.414286 0.202385
vt 0.403972 0.160898
vt 0.366440 0.140960
vt 0.384952 0.121835
vt 0.428658 0.151250
vt 0.439549 0.197158
vt 0.254066 0.672074
vt 0.218526 0.674677
vt 0.232456 0.657272
vt 0.195881 0.654109
vt 0.205521 0.642026
vt 0.240935 0.638278
vt 0.265803 0.648873
vt 0.187623 0.608916
vt 0.209086 0.627183
vt 0.178415 0.617133
vt 0.183405 0.599013
vt 0.215770 0.597072
vt 0.214614 0.612592
vt 0.227230 0.228670
vt 0.235950 0.221671
vt 0.265311 0.227472
vt 0.260802 0.241285
vt 0.331139 0.239969
vt 0.351221 0.241831
vt 0.364615 0.242604
vt 0.349341 0.271108
vt 0.328385 0.264620
vt 0.029354 0.303184
vt 0.055590 0.256210
vt 0.060370 0.301867
vt 0.068153 0.342193
vt 0.038220 0.348844
vt 0.004082 0.305741
vt 0.024878 0.253570
vt 0.148536 0.893897
vt 0.150002 0.926567
vt 0.132646 0.912270
vt 0.244226 0.618579
vt 0.245215 0.598127
vt 0.117208 0.907248
vt 0.299771 0.234377
vt 0.296696 0.253973
vt 0.375919 0.244927
vt 0.389877 0.245659
vt 0.381956 0.279428
vt 0.371782 0.277925
vt 0.362745 0.275017
vt 0.140283 0.855433
vt 0.168186 0.848478
vt 0.174668 0.887639
vt 0.124303 0.881361
vt 0.108897 0.836718
vt 0.129375 0.812668
vt 0.335827 0.296116
vt 0.347794 0.301862
vt 0.324397 0.325375
vt 0.314836 0.318482
vt 0.316550 0.286742
vt 0.667799 0.132656
vt 0.718136 0.133863
vt 0.706551 0.165453
vt 0.678596 0.193717
vt 0.638404 0.164821
vt 0.628667 0.101280
vt 0.687218 0.100978
vt 0.204500 0.899937
vt 0.236841 0.904221
vt 0.218843 0.917999
vt 0.219059 0.580700
vt 0.246791 0.576873
vt 0.214186 0.565548
vt 0.243823 0.555696
vt 0.183766 0.927336
vt 0.286789 0.271948
vt 0.299082 0.307279
vt 0.273499 0.289297
vt 0.254747 0.255213
vt 0.355628 0.305773
vt 0.364825 0.309623
vt 0.340776 0.336974
vt 0.331406 0.330428
vt 0.208039 0.809062
vt 0.231756 0.832915
vt 0.205561 0.856551
vt 0.226401 0.882143
vt 0.179568 0.894613
vt 0.180223 0.849402
vt 0.191427 0.587450
vt 0.182080 0.580168
vt 0.217840 0.244350
vt 0.228632 0.240020
vt 0.244335 0.267374
vt 0.238327 0.283093
vt 0.260277 0.307016
vt 0.279428 0.327174
vt 0.244463 0.321907
vt 0.227733 0.293349
vt 0.303061 0.353848
vt 0.312106 0.362207
vt 0.278639 0.383556
vt 0.271067 0.374017
vt 0.297189 0.347793
vt 0.751611 0.163889
vt 0.741821 0.192678
vt 0.774092 0.188153
vt 0.761854 0.211367
vt 0.741006 0.233501
vt 0.717043 0.218088
vt 0.180917 0.566682
vt 0.168927 0.564020
vt 0.191662 0.538071
vt 0.204647 0.549582
vt 0.209055 0.260167
vt 0.218840 0.259132
vt 0.290522 0.339834
vt 0.267179 0.367401
vt 0.263618 0.358379
vt 0.197948 0.778695
vt 0.236841 0.784189
vt 0.174668 0.804752
vt 0.694731 0.070291
vt 0.654841 0.069789
vt 0.679303 0.043563
vt 0.190870 0.748833
vt 0.225592 0.763617
vt 0.252511 0.524264
vt 0.231182 0.535477
vt 0.214572 0.517672
vt 0.231280 0.502085
vt 0.235899 0.388919
vt 0.240199 0.399255
vt 0.201050 0.399222
vt 0.202976 0.392464
vt 0.235378 0.382483
vt 0.681929 0.239745
vt 0.718242 0.255542
vt 0.699261 0.277980
vt 0.650232 0.261557
vt 0.638656 0.218289
vt 0.592813 0.833643
vt 0.561897 0.841150
vt 0.578734 0.811199
vt 0.613469 0.839920
vt 0.584480 0.862555
vt 0.189375 0.264464
vt 0.202420 0.271213
vt 0.212687 0.301112
vt 0.194566 0.301152
vt 0.234854 0.372325
vt 0.257130 0.344149
vt 0.204995 0.380991
vt 0.204930 0.362552
vt 0.231728 0.355927
vt 0.566027 0.230120
vt 0.582555 0.272225
vt 0.544157 0.265299
vt 0.579648 0.303968
vt 0.535995 0.301347
vt 0.513226 0.259853
vt 0.538009 0.219479
vt 0.199698 0.503738
vt 0.559949 0.877588
vt 0.576494 0.886742
vt 0.611285 0.879099
vt 0.596376 0.894213
vt 0.736283 0.284997
vt 0.735061 0.259886
vt 0.223398 0.330770
vt 0.200602 0.334894
vt 0.173579 0.262822
vt 0.180449 0.272151
vt 0.179767 0.303250
vt 0.167285 0.298792
vt 0.178444 0.364069
vt 0.174806 0.383696
vt 0.171167 0.396767
vt 0.147835 0.381052
vt 0.154653 0.360716
vt 0.733763 0.606178
vt 0.765234 0.641640
vt 0.731959 0.647957
vt 0.769440 0.673082
vt 0.739370 0.685209
vt 0.701772 0.653269
vt 0.700216 0.606471
vt 0.730857 0.304216
vt 0.399986 0.820048
vt 0.413958 0.795130
vt 0.419265 0.823803
vt 0.429649 0.792178
vt 0.438263 0.823507
vt 0.727169 0.321674
vt 0.689759 0.301306
vt 0.179598 0.335572
vt 0.161057 0.332360
vt 0.170013 0.405596
vt 0.202045 0.410557
vt 0.169434 0.418716
vt 0.143778 0.406696
vt 0.143308 0.395627
vt 0.635707 0.287435
vt 0.601664 0.243136
vt 0.634916 0.315438
vt 0.622564 0.849447
vt 0.414047 0.757535
vt 0.430657 0.757534
vt 0.418981 0.765902
vt 0.293253 0.401346
vt 0.328296 0.377077
vt 0.357426 0.348346
vt 0.346728 0.392712
vt 0.309890 0.419308
vt 0.694317 0.348317
vt 0.733605 0.341498
vt 0.757700 0.326208
vt 0.742554 0.359103
vt 0.702275 0.368186
vt 0.155649 0.294410
vt 0.145650 0.324815
vt 0.135938 0.352730
vt 0.120734 0.339890
vt 0.132895 0.313302
vt 0.942993 0.700494
vt 0.939080 0.673100
vt 0.958059 0.693893
vt 0.946599 0.662711
vt 0.965886 0.685082
vt 0.974235 0.719700
vt 0.957300 0.725155
vt 0.591265 0.336774
vt 0.644422 0.343626
vt 0.688517 0.324944
vt 0.656961 0.367797
vt 0.607665 0.365331
vt 0.051866 0.904009
vt 0.053000 0.930648
vt 0.034839 0.901127
vt 0.055715 0.892874
vt 0.086065 0.916436
vt 0.070908 0.925765
vt 0.161529 0.253407
vt 0.164819 0.266000
vt 0.146863 0.283545
vt 0.127633 0.373671
vt 0.122757 0.389276
vt 0.942280 0.732693
vt 0.932582 0.709662
vt 0.122309 0.298186
vt 0.107474 0.321973
vt 0.903955 0.774326
vt 0.926495 0.792678
vt 0.904429 0.796448
vt 0.113969 0.279049
vt 0.138552 0.273342
vt 0.980067 0.750328
vt 0.106216 0.387817
vt 0.081926 0.375406
vt 0.089959 0.365373
vt 0.076968 0.334810
vt 0.980427 0.785378
vt 0.962119 0.754197
vt 0.507053 0.891192
vt 0.475588 0.915501
vt 0.470837 0.888816
vt 0.441279 0.909539
vt 0.439549 0.886012
vt 0.442422 0.858816
vt 0.472192 0.857806
vt 0.507225 0.855501
vt 0.069092 0.889582
vt 0.058833 0.873160
vt 0.091452 0.883942
vt 0.094305 0.903592
vt 0.153599 0.237887
vt 0.153557 0.251589
vt 0.133422 0.257827
vt 0.945267 0.759364
vt 0.925153 0.742430
vt 0.962054 0.787424
vt 0.944890 0.789764
vt 0.926787 0.766013
vt 0.824577 0.392256
vt 0.876438 0.396760
vt 0.853320 0.416086
vt 0.798650 0.425862
vt 0.265803 0.716497
vt 0.303850 0.669735
vt 0.304638 0.718986
vt 0.272083 0.754529
vt 0.075510 0.483847
vt 0.115602 0.496811
vt 0.099398 0.508361
vt 0.131515 0.527096
vt 0.119003 0.534421
vt 0.083317 0.525044
vt 0.507823 0.815864
vt 0.473281 0.822657
vt 0.015927 0.519809
vt 0.057327 0.504278
vt 0.041426 0.531793
vt 0.026902 0.563756
vt 0.000000 0.556453
vt 0.480589 0.785568
vt 0.065672 0.862260
vt 0.056182 0.848845
vt 0.088601 0.843738
vt 0.091805 0.864103
vt 0.148347 0.216790
vt 0.145578 0.230053
vt 0.126983 0.241128
vt 0.125260 0.222006
vt 0.944495 0.823979
vt 0.961707 0.824639
vt 0.955856 0.863541
vt 0.940958 0.859605
vt 0.925710 0.822677
vt 0.380880 0.315189
vt 0.398777 0.279122
vt 0.400472 0.323314
vt 0.376900 0.361281
vt 0.068878 0.547124
vt 0.106271 0.548205
vt 0.093446 0.563190
vt 0.056258 0.572689
vt 0.107950 0.255474
vt 0.902507 0.820938
vt 0.923952 0.853683
vt 0.900497 0.845938
vt 0.879891 0.818448
vt 0.980188 0.824451
vt 0.069644 0.297086
vt 0.065009 0.253759
vt 0.972983 0.865325
vt 0.150817 0.196582
vt 0.144007 0.205679
vt 0.125089 0.203942
vt 0.129488 0.187171
vt 0.074127 0.204425
vt 0.088426 0.237785
vt 0.075214 0.243780
vt 0.939281 0.901830
vt 0.931154 0.894237
vt 0.063447 0.204366
vt 0.075929 0.166946
vt 0.093009 0.173599
vt 0.089428 0.204925
vt 0.167519 0.444662
vt 0.141942 0.421127
vt 0.208787 0.435758
vt 0.218525 0.460526
vt 0.169034 0.469986
vt 0.130498 0.445785
vt 0.045632 0.599827
vt 0.076457 0.601627
vt 0.073924 0.620830
vt 0.038996 0.626401
vt 0.012849 0.597528
vt 0.878623 0.854200
vt 0.900707 0.869593
vt 0.920738 0.883369
vt 0.110540 0.179926
vt 0.106656 0.204227
vt 0.952445 0.905781
vt 0.961402 0.912357
vt 0.939183 0.949543
vt 0.928907 0.941297
vt 0.877491 0.040985
vt 0.862479 0.000000
vt 0.902284 0.020443
vt 0.914391 0.057796
vt 0.894263 0.077751
vt 0.851173 0.063593
vt 0.838953 0.022908
vt 0.099115 0.602639
vt 0.084386 0.582247
vt 0.107607 0.591423
vt 0.060766 0.830437
vt 0.067410 0.837180
vt 0.038348 0.650277
vt 0.003254 0.630344
vt 0.071763 0.639048
vt 0.074734 0.653587
vt 0.042370 0.670948
vt 0.002102 0.659436
vt 0.252467 0.813962
vt 0.236841 0.792687
vt 0.252467 0.783640
vt 0.115067 0.157925
vt 0.098243 0.146135
vt 0.124178 0.140799
vt 0.139858 0.159128
vt 0.131894 0.170553
vt 0.912700 0.967355
vt 0.919341 0.935439
vt 0.925157 0.977302
vt 0.904156 0.984890
vt 0.903394 0.960302
vt 0.833723 0.087183
vt 0.811800 0.047984
vt 0.886781 0.099191
vt 0.886983 0.121296
vt 0.825995 0.111646
vt 0.788107 0.073992
vt 0.096242 0.627448
vt 0.101986 0.614050
vt 0.057351 0.816766
vt 0.069872 0.819011
vt 0.088503 0.788892
vt 0.094305 0.797454
vt 0.157318 0.180244
vt 0.148709 0.183866
vt 0.081437 0.135341
vt 0.063211 0.162163
vt 0.068920 0.127710
vt 0.093231 0.110651
vt 0.109046 0.124795
vt 0.037371 0.112979
vt 0.074248 0.092537
vt 0.058226 0.122482
vt 0.025540 0.154563
vt 0.006731 0.151390
vt 0.022308 0.106609
vt 0.057106 0.078320
vt 0.152528 0.151108
vt 0.141815 0.131125
vt 0.129332 0.111839
vt 0.160568 0.124576
vt 0.167772 0.148286
vt 0.666632 0.806204
vt 0.674158 0.777242
vt 0.674226 0.806379
vt 0.685257 0.774687
vt 0.685976 0.806490
vt 0.676429 0.836035
vt 0.668630 0.834154
vt 0.775979 0.130402
vt 0.828838 0.136873
vt 0.889906 0.143245
vt 0.843830 0.162675
vt 0.793628 0.160480
vt 0.099218 0.646635
vt 0.101965 0.633546
vt 0.042458 0.808014
vt 0.060504 0.806616
vt 0.069641 0.777192
vt 0.083968 0.780830
vt 0.173979 0.173924
vt 0.162657 0.171120
vt 0.113894 0.093919
vt 0.102069 0.080899
vt 0.126162 0.066555
vt 0.136874 0.081752
vt 0.600962 0.196968
vt 0.568417 0.177774
vt 0.600090 0.137465
vt 0.928761 0.130077
vt 0.927135 0.147808
vt 0.077589 0.667642
vt 0.049744 0.687905
vt 0.084105 0.676192
vt 0.060115 0.701249
vt 0.034058 0.721264
vt 0.018233 0.704942
vt 0.050788 0.771072
vt 0.031650 0.797071
vt 0.015548 0.803872
vt 0.033733 0.774226
vt 0.186189 0.169813
vt 0.180866 0.166030
vt 0.178541 0.142443
vt 0.535145 0.883414
vt 0.539472 0.861803
vt 0.544573 0.896308
vt 0.165123 0.091995
vt 0.155621 0.070759
vt 0.149504 0.055989
vt 0.175094 0.051527
vt 0.175515 0.064711
vt 0.545296 0.774687
vt 0.551750 0.806281
vt 0.531107 0.793207
vt 0.759012 0.513615
vt 0.780855 0.564115
vt 0.743680 0.560619
vt 0.769578 0.605349
vt 0.708341 0.557379
vt 0.723480 0.507145
vt 0.055409 0.733680
vt 0.073126 0.711082
vt 0.071749 0.745958
vt 0.241239 0.756499
vt 0.255157 0.782077
vt 0.236841 0.783640
vt 0.080224 0.741629
vt 0.173028 0.116827
vt 0.514474 0.815099
vt 0.525442 0.820277
vt 0.543394 0.831355
vt 0.527167 0.851734
vt 0.673016 0.864036
vt 0.687282 0.869601
vt 0.688839 0.899217
vt 0.672147 0.891022
vt 0.662899 0.860219
vt 0.826905 0.190845
vt 0.872544 0.188864
vt 0.897757 0.165142
vt 0.912747 0.187086
vt 0.899712 0.213910
vt 0.857633 0.219686
vt 0.201939 0.067378
vt 0.179214 0.084994
vt 0.205935 0.055495
vt 0.231475 0.076805
vt 0.199963 0.086153
vt 0.053780 0.387827
vt 0.099614 0.400179
vt 0.074781 0.417962
vt 0.031028 0.400538
vt 0.013903 0.356234
vt 0.106443 0.744554
vt 0.090059 0.717112
vt 0.112193 0.719049
vt 0.116023 0.690150
vt 0.135676 0.717011
vt 0.132798 0.742678
vt 0.555506 0.845956
vt 0.183910 0.111124
vt 0.197931 0.110714
vt 0.223750 0.093511
vt 0.214803 0.115637
vt 0.195257 0.137388
vt 0.664600 0.909984
vt 0.681979 0.917635
vt 0.422842 0.673103
vt 0.408676 0.706873
vt 0.404970 0.682526
vt 0.416091 0.645348
vt 0.433647 0.639752
vt 0.439299 0.666298
vt 0.867636 0.245192
vt 0.910062 0.236281
vt 0.927874 0.208158
vt 0.936136 0.227438
vt 0.700216 0.458531
vt 0.667266 0.470729
vt 0.673382 0.444597
vt 0.624999 0.461060
vt 0.630671 0.432446
vt 0.122040 0.661357
vt 0.099475 0.687220
vt 0.113778 0.653489
vt 0.135742 0.652870
vt 0.135681 0.686510
vt 0.559949 0.911753
vt 0.554206 0.897343
vt 0.553743 0.872083
vt 0.191357 0.162503
vt 0.205325 0.141705
vt 0.196006 0.170238
vt 0.234240 0.125935
vt 0.246956 0.105107
vt 0.270476 0.121784
vt 0.254098 0.140436
vt 0.221781 0.149176
vt 0.423842 0.609778
vt 0.409714 0.614111
vt 0.283886 0.078987
vt 0.261177 0.056235
vt 0.294068 0.070520
vt 0.313169 0.098224
vt 0.418730 0.577179
vt 0.624167 0.493251
vt 0.658885 0.500975
vt 0.685223 0.509617
vt 0.653983 0.533471
vt 0.626207 0.528002
vt 0.147035 0.656679
vt 0.154571 0.645583
vt 0.166709 0.674617
vt 0.152134 0.683490
vt 0.214545 0.182561
vt 0.208803 0.170486
vt 0.236251 0.161897
vt 0.260704 0.091038
vt 0.239592 0.066383
vt 0.273632 0.082680
vt 0.287773 0.109545
vt 0.819455 0.761902
vt 0.807707 0.721317
vt 0.840464 0.737336
vt 0.857974 0.773794
vt 0.990450 0.597009
vt 0.962174 0.632452
vt 0.964646 0.594379
vt 0.799579 0.784099
vt 0.784130 0.743039
vt 0.158019 0.736223
vt 0.156658 0.711119
vt 0.177080 0.701831
vt 0.183342 0.725590
vt 0.416253 0.544153
vt 0.408253 0.580132
vt 0.346830 0.112364
vt 0.334197 0.119804
vt 0.427154 0.542756
vt 0.629150 0.564299
vt 0.658305 0.566351
vt 0.678306 0.538996
vt 0.684830 0.567975
vt 0.631888 0.601232
vt 0.167775 0.645187
vt 0.171340 0.633207
vt 0.183431 0.666619
vt 0.224505 0.185091
vt 0.246981 0.171789
vt 0.295202 0.144384
vt 0.310826 0.131794
vt 0.322644 0.122749
vt 0.336544 0.146498
vt 0.757097 0.717188
vt 0.783815 0.699770
vt 0.762790 0.762631
vt 0.733583 0.732852
vt 0.209997 0.711179
vt 0.198885 0.689606
vt 0.234676 0.693252
vt 0.272234 0.157968
vt 0.504443 0.655032
vt 0.442604 0.611161
vt 0.505311 0.606515
vt 0.563665 0.649586
vt 0.549295 0.694999
vt 0.503906 0.701394
vt 0.456637 0.657698
vt 0.503670 0.742072
vt 0.469257 0.702157
vt 0.546211 0.733982
vt 0.553193 0.764772
vt 0.508456 0.774687
vt 0.468070 0.742040
vt 0.420277 0.334839
vt 0.419041 0.281944
vt 0.439549 0.292831
vt 0.642918 0.017670
vt 0.705823 0.026005
vt 0.616987 0.044854
vt 0.586678 0.033381
vt 0.608999 0.005150
vt 0.565603 0.067941
vt 0.592259 0.078318
vt 0.567279 0.117714
vt 0.544116 0.108210
vt 0.520559 0.153563
vt 0.540595 0.162695
vt 0.512296 0.208178
vt 0.482474 0.249082
vt 0.493995 0.198593
vt 0.498039 0.298709
vt 0.459863 0.287186
vt 0.463488 0.237890
vt 0.363053 0.805229
vt 0.399986 0.830329
vt 0.369441 0.835707
vt 0.453199 0.324273
vt 0.496421 0.335861
vt 0.320441 0.800463
vt 0.355275 0.765694
vt 0.386503 0.761522
vt 0.394372 0.800210
vt 0.351198 0.718326
vt 0.309468 0.763497
vt 0.350069 0.666264
vt 0.382497 0.715422
vt 0.351135 0.612646
vt 0.381468 0.664706
vt 0.305002 0.618550
vt 0.309293 0.568169
vt 0.354439 0.560362
vt 0.382531 0.612169
vt 0.360025 0.512300
vt 0.386211 0.560744
vt 0.317922 0.521330
vt 0.326568 0.480067
vt 0.365017 0.469986
vt 0.393030 0.513369
vt 0.914684 0.401492
vt 0.962838 0.377962
vt 0.949770 0.412885
vt 1.000000 0.401513
vt 0.984771 0.433718
vt 0.938935 0.452236
vt 0.901449 0.439000
vt 0.888615 0.478634
vt 0.928427 0.493704
vt 0.973957 0.470599
vt 0.966869 0.510694
vt 0.920694 0.536469
vt 0.879254 0.519864
vt 0.876438 0.562161
vt 0.918182 0.579710
vt 0.963700 0.552467
vt 0.915776 0.620242
vt 0.877401 0.603261
vt 0.879374 0.640902
vt 0.908356 0.654880
vt 0.948754 0.662711
vt 0.542629 0.399702
vt 0.496173 0.431924
vt 0.502262 0.394015
vt 0.469859 0.436307
vt 0.472602 0.399320
vt 0.458161 0.476834
vt 0.499667 0.471905
vt 0.535138 0.436055
vt 0.552569 0.473507
vt 0.505529 0.514280
vt 0.506542 0.559374
vt 0.445420 0.520034
vt 0.575140 0.513190
vt 0.583069 0.556234
vt 0.578523 0.601934
vt 0.439549 0.565042
vt 0.411233 0.241656
vt 0.434206 0.240308
vt 0.611672 0.601165
vt 0.601842 0.643906
vt 0.623836 0.672692
vt 0.586992 0.684586
vt 0.173019 0.810853
vt 0.137302 0.781392
vt 0.094305 0.792342
vt 0.103841 0.767253
vt 0.143477 0.752693
vt 0.174668 0.774230
vt 0.361888 0.089836
vt 0.322588 0.088800
vt 0.335567 0.065104
vt 0.382984 0.074207
vt 0.407735 0.108346
vt 0.622564 0.859774
vt 0.652189 0.825822
vt 0.652125 0.862354
vt 0.630064 0.898416
vt 0.614005 0.559401
vt 0.607646 0.519503
vt 0.232935 0.023571
vt 0.223822 0.044658
vt 0.190700 0.017307
vt 0.197696 0.000000
vt 0.243081 0.005948
vt 0.273304 0.035010
vt 0.777066 0.467506
vt 0.831237 0.443905
vt 0.812565 0.480070
vt 0.796154 0.521251
vt 0.742970 0.456923
vt 0.265833 0.673718
vt 0.267170 0.627977
vt 0.306777 0.047842
vt 0.322492 0.030212
vt 0.354529 0.048330
vt 0.119144 0.415184
vt 0.099969 0.437083
vt 0.122916 0.469777
vt 0.085249 0.458524
vt 0.054972 0.435640
vt 0.824606 0.259238
vt 0.579518 0.447635
vt 0.586260 0.414997
vt 0.593737 0.387638
vt 0.591399 0.482359
vt 0.658527 0.789657
vt 0.624219 0.818342
vt 0.634839 0.774687
vt 0.812767 0.310160
vt 0.779954 0.336884
vt 0.774093 0.298541
vt 0.815680 0.278443
vt 0.083866 0.050931
vt 0.126057 0.053390
vt 0.098009 0.069783
vt 0.045535 0.067758
vt 0.075131 0.036285
vt 0.115944 0.031321
vt 0.542187 0.337107
vt 0.555439 0.368183
vt 0.504377 0.368186
vt 0.154938 0.042529
vt 0.151629 0.020001
vt 0.110914 0.013874
vt 0.152705 0.002211
vt 0.022492 0.202728
vt 0.050300 0.160382
vt 0.050828 0.207003
vt 0.000000 0.252676
vt 0.000089 0.200652
vt 0.252058 0.421113
vt 0.266316 0.442773
vt 0.315302 0.169069
vt 0.439299 0.472329
vt 0.849137 0.337882
vt 0.183358 0.211947
vt 0.252771 0.783674
vt 0.137353 0.603978
vt 0.174571 0.917336
vt 0.203878 0.934520
vt 0.216681 0.744554
vt 0.265803 0.548918
vt 0.613490 0.774687
vt 0.205434 0.483951
vt 0.712922 0.695990
vt 0.401118 0.791397
vt 0.622564 0.879252
vt 0.438263 0.706873
vt 0.749943 0.308933
vt 0.767709 0.339631
vt 0.928355 0.680290
vt 0.981280 0.713287
vt 0.000000 0.851754
vt 0.111489 0.360517
vt 0.514474 0.922090
vt 0.852790 0.368186
vt 0.094617 0.469986
vt 0.033332 0.488167
vt 0.514474 0.774687
vt 0.876438 0.836251
vt 0.981280 0.870017
vt 0.936136 0.040029
vt 0.007669 0.684428
vt 0.241611 0.822720
vt 0.918553 0.996270
vt 0.894027 0.977100
vt 0.774093 0.101331
vt 0.081548 0.100717
vt 0.150793 0.102496
vt 0.666258 0.778637
vt 0.688839 0.838840
vt 0.559949 0.787899
vt 0.082109 0.744554
vt 0.255157 0.744554
vt 0.514799 0.786571
vt 0.658527 0.885222
vt 0.424839 0.695753
vt 0.399986 0.652945
vt 0.695790 0.482055
vt 0.554124 0.946266
vt 0.249716 0.063109
vt 0.303001 0.102199
vt 0.876438 0.747564
vt 1.000000 0.634732
vt 0.467692 0.774329
vt 0.672745 0.000000
vt 0.439549 0.274198
vt 0.399986 0.471700
vt 0.929930 0.368186
vt 0.111692 0.744554
vt 0.658527 0.897988
vt 0.186808 0.039014
vt 0.285725 0.017027
vt 0.822774 0.229928
vt 0.556781 0.368186
vt 0.815680 0.340815
vt 0.774883 0.259238
vn 0.2616 -0.2049 -0.9431
vn 0.2828 -0.1117 -0.9526
vn 0.2500 0.0581 -0.9665
vn -0.0569 0.0633 -0.9964
vn -0.0298 0.0061 -0.9995
vn 0.1580 -0.0764 -0.9845
vn 0.0757 -0.1261 -0.9891
vn 0.4278 -0.0502 -0.9024
vn 0.1482 0.0434 -0.9880
vn 0.3961 0.0629 -0.9160
vn 0.1821 -0.0310 -0.9828
vn 0.1681 -0.0493 -0.9845
vn 0.2311 -0.1361 -0.9633
vn 0.0819 -0.1492 -0.9854
vn 0.1625 -0.0357 -0.9860
vn 0.3975 -0.0516 0.9161
vn 0.3554 0.0327 0.9341
vn 0.4221 0.0586 0.9046
vn 0.1835 0.0068 0.9830
vn 0.2728 0.0691 0.9596
vn 0.1196 -0.2215 0.9678
vn 0.4440 -0.3075 0.8415
vn 0.2733 0.0190 0.9617
vn 0.3252 -0.0648 0.9434
vn 0.0866 0.0299 0.9958
vn -0.1263 -0.2966 0.9466
vn 0.4085 0.1181 0.9051
vn 0.3671 -0.0214 0.9299
vn 0.0695 -0.2987 -0.9518
vn 0.0355 0.1747 -0.9840
vn -0.0956 0.2011 -0.9749
vn 0.2545 -0.1455 -0.9560
vn -0.2655 -0.0717 -0.9614
vn -0.3159 0.0574 -0.9470
vn -0.1613 -0.1023 -0.9816
vn 0.0882 -0.0288 -0.9957
vn 0.0594 -0.0457 -0.9972
vn 0.1319 0.0150 -0.9911
vn 0.0381 -0.0207 -0.9991
vn 0.6540 -0.1051 -0.7492
vn 0.5484 -0.1852 -0.8154
vn 0.1064 0.0347 0.9937
vn -0.1415 -0.0390 0.9892
vn 0.1197 -0.0403 0.9920
vn 0.5070 -0.4825 0.7142
vn 0.0491 -0.1781 0.9828
vn -0.0314 0.0913 0.9953
vn 0.1135 0.0121 0.9934
vn 0.2948 -0.2102 -0.9321
vn 0.2272 -0.3992 -0.8882
vn -0.0730 -0.1060 -0.9917
vn 0.2326 -0.0381 -0.9718
vn -0.0182 -0.1888 -0.9818
vn -0.1185 -0.0397 -0.9922
vn -0.0721 -0.0282 -0.9970
vn -0.0738 0.0132 -0.9972
vn 0.0447 -0.0355 -0.9984
vn 0.1869 -0.0768 -0.9794
vn 0.0830 -0.1219 -0.9890
vn 0.1480 -0.0698 -0.9865
vn 0.0663 -0.0146 -0.9977
vn 0.1874 -0.0429 -0.9813
vn -0.5617 0.2084 -0.8007
vn 0.1281 -0.1089 -0.9857
vn 0.3510 -0.0276 0.9359
vn 0.3524 0.1556 0.9228
vn 0.1910 0.1673 0.9672
vn 0.0220 -0.2736 -0.9616
vn 0.1327 -0.1251 -0.9832
vn -0.1798 0.0428 -0.9828
vn -0.1781 0.1129 -0.9775
vn -0.2722 0.2378 -0.9324
vn -0.2609 0.1267 -0.9570
vn 0.1106 -0.1199 -0.9866
vn 0.4693 -0.1856 0.8633
vn 0.4397 -0.2673 0.8574
vn 0.5138 -0.0488 0.8565
vn 0.5131 -0.2700 0.8147
vn 0.3046 -0.1747 0.9363
vn 0.0703 0.0147 -0.9974
vn -0.0945 0.2508 -0.9634
vn 0.0487 0.1314 -0.9901
vn 0.0322 0.0311 -0.9990
vn 0.1737 -0.0594 -0.9830
vn 0.0782 -0.6503 0.7556
vn 0.3081 -0.6398 0.7040
vn 0.0258 -0.6805 0.7322
vn -0.1326 -0.6048 0.7852
vn -0.1140 -0.5413 0.8330
vn 0.0860 -0.7295 0.6785
vn 0.2824 -0.5787 0.7651
vn 0.3334 -0.2794 0.9004
vn 0.1408 -0.0204 0.9898
vn -0.0234 0.2103 0.9773
vn -0.1057 0.1533 0.9825
vn -0.0051 -0.0265 0.9996
vn 0.2309 -0.2312 0.9451
vn 0.2418 -0.0994 -0.9652
vn -0.0139 -0.1343 -0.9908
vn 0.0297 -0.1925 -0.9808
vn 0.4137 0.0052 -0.9104
vn 0.0029 0.2349 -0.9720
vn 0.0230 0.0906 -0.9956
vn 0.0446 0.0178 -0.9988
vn -0.0038 0.1610 -0.9869
vn 0.4301 -0.5103 0.7447
vn 0.5229 -0.5119 0.6815
vn 0.2987 -0.5724 0.7636
vn 0.1148 -0.1374 0.9838
vn -0.0744 -0.1425 0.9870
vn -0.0587 -0.1291 -0.9899
vn 0.2491 0.1014 -0.9631
vn -0.2839 -0.3208 -0.9036
vn -0.1176 -0.1521 -0.9813
vn -0.1060 -0.1565 -0.9820
vn -0.0755 -0.0564 -0.9955
vn -0.0817 -0.2098 -0.9743
vn 0.2371 -0.0978 -0.9665
vn -0.0086 0.1767 -0.9842
vn 0.0026 0.0571 -0.9984
vn 0.0471 -0.2230 -0.9737
vn 0.0934 -0.1760 -0.9799
vn 0.0116 0.1077 -0.9941
vn 0.1009 -0.7227 0.6837
vn -0.0248 -0.1567 0.9873
vn -0.1656 -0.3782 0.9108
vn -0.1901 -0.6077 0.7711
vn -0.4247 -0.1115 0.8984
vn 0.1997 -0.0789 0.9767
vn 0.0270 0.2402 0.9703
vn -0.3490 0.0993 0.9318
vn 0.0799 -0.1437 -0.9864
vn -0.4310 -0.3132 -0.8462
vn -0.0400 0.1409 -0.9892
vn 0.0631 0.1867 -0.9803
vn 0.0680 0.1618 -0.9845
vn 0.3300 -0.4400 0.8351
vn 0.3788 -0.3736 0.8467
vn 0.2462 -0.6879 0.6828
vn 0.2761 -0.5647 0.7777
vn 0.2358 -0.3199 0.9176
vn -0.1381 0.1845 0.9731
vn 0.0921 0.1078 0.9899
vn 0.0250 -0.1559 -0.9874
vn 0.0248 -0.0484 -0.9985
vn -0.0580 -0.1749 -0.9828
vn 0.0944 0.2043 -0.9743
vn 0.0584 0.0593 -0.9965
vn -0.3236 -0.6162 0.7180
vn -0.2750 -0.5179 0.8100
vn -0.3271 -0.5088 0.7963
vn -0.3062 -0.6456 0.6995
vn -0.3008 -0.5024 0.8106
vn 0.1785 0.2586 0.9493
vn 0.2952 -0.0991 0.9503
vn 0.2747 0.1955 0.9414
vn 0.2247 -0.0558 -0.9728
vn 0.1147 0.2081 -0.9713
vn 0.1155 -0.3093 -0.9439
vn -0.0115 -0.2153 -0.9765
vn 0.0764 0.3086 -0.9481
vn 0.0764 -0.0143 -0.9969
vn 0.0489 -0.0110 -0.9987
vn -0.0216 -0.2279 -0.9734
vn 0.1124 -0.0586 -0.9919
vn -0.2180 -0.3142 0.9239
vn -0.2253 -0.4174 0.8803
vn -0.1154 -0.2643 0.9575
vn -0.2860 -0.4356 0.8535
vn -0.1391 -0.2807 0.9496
vn -0.1974 -0.4263 0.8827
vn -0.1856 -0.4777 0.8587
vn -0.0743 -0.0859 0.9935
vn 0.0561 0.1246 0.9906
vn -0.2484 -0.2057 0.9466
vn 0.1219 -0.1881 -0.9745
vn 0.1599 -0.1859 -0.9695
vn -0.0354 -0.0596 -0.9976
vn 0.2287 -0.0830 -0.9699
vn -0.0649 -0.1511 -0.9864
vn 0.0086 -0.1671 -0.9859
vn -0.0042 -0.1180 -0.9930
vn 0.0837 0.0155 -0.9964
vn 0.0656 0.0900 -0.9938
vn 0.0283 0.0129 -0.9995
vn -0.0585 -0.0957 -0.9937
vn -0.1520 0.2288 0.9615
vn -0.2457 0.3296 0.9116
vn -0.1363 0.1807 0.9740
vn -0.2260 0.3259 0.9180
vn -0.1130 0.1344 0.9844
vn -0.3086 0.3362 0.8898
vn -0.3824 0.3497 0.8553
vn -0.2691 -0.1631 0.9492
vn -0.0507 0.0892 0.9947
vn 0.0739 -0.2606 0.9626
vn -0.1330 -0.2216 0.9660
vn -0.2585 -0.4401 0.8599
vn 0.0087 -0.1271 -0.9918
vn -0.0317 -0.1416 -0.9894
vn -0.0049 -0.0026 -1.0000
vn -0.0902 -0.2322 -0.9685
vn -0.0866 -0.0332 -0.9957
vn -0.3481 -0.1697 -0.9219
vn -0.0996 -0.0618 -0.9931
vn -0.2699 -0.5965 0.7558
vn -0.2782 -0.5544 0.7843
vn -0.3941 -0.5011 0.7705
vn 0.0805 -0.2204 0.9721
vn 0.2868 -0.2969 0.9108
vn 0.0854 -0.2899 -0.9532
vn 0.0264 -0.1908 -0.9813
vn 0.0472 -0.1004 -0.9938
vn 0.0948 -0.7110 -0.6967
vn 0.1509 -0.5312 -0.8337
vn -0.3338 -0.2597 0.9061
vn -0.1892 -0.3306 0.9246
vn 0.0179 -0.5170 0.8557
vn -0.2762 -0.2241 0.9346
vn -0.3567 -0.2097 0.9104
vn 0.0010 -0.0082 -0.9999
vn -0.0764 -0.0923 -0.9928
vn -0.0851 -0.0919 -0.9921
vn -0.1090 -0.0176 -0.9939
vn -0.0853 0.0493 -0.9951
vn -0.3321 -0.0768 -0.9401
vn -0.3469 -0.0827 -0.9342
vn -0.1469 0.0109 -0.9891
vn 0.0089 0.0855 -0.9963
vn -0.2204 -0.0282 -0.9750
vn -0.3207 -0.0438 -0.9461
vn -0.3016 -0.3464 0.8882
vn -0.3828 -0.3387 0.8595
vn -0.1664 -0.2738 0.9473
vn -0.4161 -0.1869 0.8899
vn -0.3604 -0.2129 0.9082
vn 0.3572 0.1023 0.9284
vn 0.1789 0.1932 0.9647
vn 0.0089 -0.3054 0.9522
vn -0.0276 -0.1185 -0.9926
vn -0.1841 0.0488 -0.9817
vn -0.1010 0.0181 -0.9947
vn -0.0482 -0.0081 -0.9988
vn -0.1883 -0.0155 -0.9820
vn -0.0959 -0.0368 -0.9947
vn -0.1012 0.0140 -0.9948
vn -0.1191 0.0523 -0.9915
vn -0.1182 0.0311 -0.9925
vn -0.1310 -0.0739 -0.9886
vn -0.2699 -0.0055 -0.9629
vn 0.0931 0.0085 -0.9956
vn -0.1985 0.0817 -0.9767
vn -0.3524 -0.0058 -0.9358
vn -0.4465 -0.0117 0.8947
vn -0.4724 -0.0492 0.8800
vn -0.4240 -0.0273 0.9052
vn -0.3471 0.1390 0.9275
vn -0.4931 0.1882 0.8494
vn -0.4772 0.1542 0.8651
vn 0.4244 0.1908 0.8852
vn 0.0668 0.1039 0.9923
vn 0.0226 -0.0243 0.9994
vn -0.1318 -0.0782 0.9882
vn -0.0028 -0.0274 -0.9996
vn 0.1624 -0.0478 -0.9856
vn -0.1367 0.0923 -0.9863
vn -0.2035 0.0033 -0.9791
vn -0.3835 0.1082 -0.9172
vn -0.2154 0.0450 -0.9755
vn -0.4383 0.0407 0.8979
vn -0.4692 0.1347 0.8727
vn -0.6229 0.1881 0.7593
vn -0.7584 -0.0055 0.6518
vn -0.3760 -0.1712 0.9107
vn -0.2745 -0.1045 0.9559
vn -0.2427 0.0788 0.9669
vn -0.4841 0.3172 0.8155
vn -0.5860 0.5097 0.6299
vn -0.2903 0.1745 0.9409
vn -0.2413 0.0844 0.9667
vn -0.4278 0.3391 0.8378
vn -0.4329 0.0012 0.9014
vn -0.2057 -0.3722 0.9051
vn -0.1669 0.1412 0.9758
vn -0.0782 0.1176 0.9900
vn 0.0813 0.0625 -0.9947
vn 0.1765 -0.0141 -0.9842
vn -0.2623 0.0583 -0.9632
vn -0.2702 0.0449 -0.9617
vn -0.0873 0.0852 -0.9925
vn -0.6356 0.3502 -0.6879
vn -0.5281 0.1547 -0.8349
vn -0.1863 0.0421 -0.9816
vn -0.1475 0.0769 -0.9861
vn -0.0172 0.0602 -0.9980
vn 0.0523 -0.0067 -0.9986
vn 0.2724 -0.4937 -0.8259
vn 0.1877 -0.6161 -0.7649
vn -0.2795 0.3229 0.9041
vn -0.1722 0.2358 0.9564
vn -0.0363 0.1131 -0.9929
vn -0.1247 0.0922 -0.9879
vn -0.1125 0.0965 -0.9890
vn -0.5649 0.2260 -0.7936
vn -0.5162 0.2316 -0.8245
vn -0.0280 0.0291 -0.9992
vn 0.2078 -0.0130 -0.9781
vn -0.1072 0.3429 -0.9332
vn -0.2438 0.1393 -0.9598
vn 0.0540 -0.0735 -0.9958
vn -0.1829 0.0073 -0.9831
vn -0.2628 0.2609 -0.9289
vn -0.0403 -0.1294 -0.9908
vn 0.0271 0.0872 -0.9958
vn 0.0034 0.0098 -0.9999
vn -0.0015 -0.0639 -0.9980
vn -0.1061 -0.5471 -0.8303
vn -0.1693 -0.3918 -0.9043
vn 0.0472 0.0757 -0.9960
vn -0.0381 0.1180 0.9923
vn -0.4415 0.4247 0.7904
vn -0.1969 0.1435 0.9698
vn -0.1990 0.1435 0.9694
vn -0.2493 0.3780 0.8916
vn -0.1133 0.2184 -0.9693
vn -0.2228 0.0465 -0.9737
vn -0.4226 0.0756 -0.9031
vn -0.2069 -0.0686 -0.9760
vn -0.0302 -0.0066 -0.9995
vn -0.0181 -0.0401 -0.9990
vn -0.3751 0.5385 0.7545
vn -0.3533 0.2976 0.8869
vn -0.4148 0.3644 0.8337
vn -0.4535 0.4333 0.7788
vn -0.2884 0.3912 0.8739
vn -0.2642 0.3361 0.9040
vn 0.2238 0.1884 0.9562
vn -0.1891 0.1463 0.9710
vn 0.1308 0.0552 0.9899
vn -0.0799 0.1551 0.9846
vn 0.1132 0.2952 0.9487
vn -0.4429 0.7544 0.4845
vn -0.1625 0.1870 -0.9688
vn -0.1576 0.0849 -0.9838
vn -0.0129 -0.0908 -0.9958
vn -0.0623 0.0399 -0.9973
vn 0.1484 0.2219 -0.9637
vn -0.4447 0.3464 -0.8259
vn -0.2903 0.3209 -0.9015
vn -0.1227 0.1152 -0.9857
vn -0.0623 0.1172 -0.9911
vn -0.3708 0.2404 -0.8970
vn -0.5046 0.5290 0.6823
vn -0.1875 0.2954 0.9367
vn -0.2710 0.4676 0.8414
vn -0.3380 0.4763 0.8117
vn 0.1937 0.3572 0.9137
vn 0.3583 0.0544 0.9320
vn 0.0809 0.0605 -0.9949
vn 0.1232 -0.1650 -0.9785
vn 0.0016 -0.1375 -0.9905
vn 0.1092 -0.0818 -0.9906
vn 0.0175 -0.0413 -0.9990
vn -0.0188 0.0234 -0.9995
vn -0.0732 0.0674 -0.9950
vn -0.0282 0.0273 -0.9992
vn -0.4747 0.4512 -0.7556
vn -0.4199 0.5320 -0.7353
vn -0.0285 0.1008 -0.9945
vn 0.0496 0.1082 -0.9929
vn 0.0409 0.0363 -0.9985
vn 0.0168 0.0388 -0.9991
vn 0.0481 0.0806 -0.9956
vn 0.2336 0.0789 -0.9691
vn 0.0043 0.1328 -0.9911
vn -0.0394 0.2536 -0.9665
vn 0.0220 0.1308 -0.9911
vn 0.0181 0.1511 -0.9883
vn -0.0052 -0.0518 -0.9986
vn -0.1892 0.3349 0.9230
vn -0.2242 0.5281 0.8190
vn -0.1678 0.3863 0.9069
vn -0.2027 0.5352 0.8200
vn -0.2228 0.3481 0.9106
vn 0.0651 -0.0784 0.9948
vn 0.4280 0.0979 0.8984
vn 0.3341 0.0717 0.9398
vn 0.1889 0.2075 0.9598
vn -0.0433 0.1285 -0.9908
vn 0.0040 0.0579 -0.9983
vn 0.1393 -0.1530 -0.9784
vn -0.1146 -0.1523 -0.9817
vn -0.1737 -0.3887 0.9048
vn -0.1400 -0.5676 0.8113
vn 0.0365 -0.6286 0.7768
vn 0.5854 -0.0942 0.8052
vn -0.1114 0.0825 0.9903
vn -0.1718 0.4080 0.8966
vn 0.1404 -0.0772 0.9871
vn 0.2641 0.0652 0.9623
vn 0.1947 0.3965 0.8971
vn -0.3242 -0.0598 0.9441
vn -0.1898 0.1844 -0.9644
vn -0.0624 0.1161 -0.9913
vn 0.0205 0.1337 -0.9908
vn -0.3214 0.2490 -0.9136
vn -0.2892 -0.0359 -0.9566
vn -0.1472 -0.0408 -0.9883
vn 0.0155 0.1891 -0.9818
vn 0.1607 0.2528 -0.9541
vn 0.0175 0.0773 -0.9968
vn -0.0829 -0.0380 -0.9958
vn -0.3440 0.2389 0.9080
vn -0.2606 0.2674 0.9277
vn -0.4623 0.3200 0.8270
vn -0.5583 0.3038 0.7720
vn -0.1195 0.3244 0.9383
vn 0.0173 -0.0616 0.9979
vn -0.1902 0.0080 0.9817
vn 0.0776 0.1418 0.9868
vn -0.1534 -0.0407 -0.9873
vn -0.1607 -0.0205 -0.9868
vn 0.1264 0.3163 -0.9402
vn 0.0852 0.2028 -0.9755
vn 0.1938 0.2180 -0.9565
vn 0.2408 0.3445 -0.9074
vn -0.1624 0.3779 0.9115
vn -0.1238 0.5143 0.8486
vn 0.1714 0.4225 0.8900
vn 0.1538 0.3643 0.9185
vn 0.0547 0.0083 -0.9984
vn 0.2629 0.2098 -0.9417
vn 0.1506 0.0009 -0.9886
vn 0.0177 -0.0545 -0.9984
vn 0.1879 0.0150 -0.9821
vn 0.0578 0.0562 -0.9967
vn 0.1343 0.0834 -0.9874
vn -0.5757 0.0122 -0.8176
vn -0.4358 0.1084 -0.8935
vn 0.1707 0.0620 0.9833
vn 0.0337 0.1085 0.9935
vn -0.4017 0.0854 0.9117
vn 0.1663 0.1236 0.9783
vn 0.2145 0.0839 0.9731
vn -0.0472 0.1279 -0.9906
vn 0.0743 0.0444 -0.9962
vn 0.0476 0.0585 -0.9971
vn -0.0665 0.1078 -0.9919
vn 0.4050 0.3291 -0.8530
vn 0.2959 0.1991 -0.9342
vn 0.4391 0.2449 -0.8644
vn 0.4032 0.1877 -0.8956
vn 0.3880 0.3158 0.8659
vn 0.3516 0.2156 0.9110
vn 0.3169 0.1978 0.9276
vn 0.3756 0.2709 0.8863
vn -0.0110 0.3412 0.9399
vn -0.4100 0.2900 0.8647
vn -0.0873 0.0788 0.9930
vn 0.0360 0.0252 -0.9990
vn -0.2348 0.1836 -0.9545
vn 0.1434 -0.0169 -0.9895
vn 0.1037 -0.1053 -0.9890
vn 0.1680 0.0279 -0.9854
vn 0.1513 -0.0394 -0.9877
vn 0.0489 -0.0036 -0.9988
vn 0.1856 -0.0254 -0.9823
vn 0.3887 0.1267 -0.9126
vn 0.3488 0.1502 -0.9250
vn 0.2299 0.1437 -0.9625
vn 0.1162 0.0667 -0.9910
vn 0.1946 0.0906 -0.9767
vn 0.3112 0.1260 -0.9419
vn 0.3602 0.2347 0.9028
vn 0.3128 0.1739 0.9337
vn 0.1932 0.0615 0.9792
vn 0.2739 0.0414 0.9608
vn 0.2601 0.1012 0.9602
vn 0.1759 0.0645 0.9823
vn 0.2294 -0.0689 0.9709
vn 0.1605 0.2503 0.9547
vn 0.2426 -0.0747 0.9672
vn 0.1633 -0.1255 -0.9785
vn 0.1669 -0.2284 -0.9591
vn 0.0804 0.0706 -0.9942
vn 0.2353 0.0537 -0.9704
vn 0.2352 0.0527 -0.9705
vn -0.1277 0.3109 0.9418
vn 0.1651 0.2528 0.9533
vn 0.4089 0.6187 0.6708
vn 0.0468 0.6370 0.7694
vn -0.1918 0.2075 0.9592
vn 0.1592 0.0422 0.9863
vn 0.0593 0.0855 0.9946
vn 0.2917 0.1439 0.9456
vn 0.2812 0.1172 -0.9525
vn 0.0393 0.0274 -0.9988
vn 0.2536 0.1190 -0.9599
vn 0.2517 0.0621 0.9658
vn 0.3866 0.1653 0.9073
vn 0.2767 0.1155 0.9540
vn 0.3092 0.0736 0.9481
vn 0.4337 -0.0582 0.8991
vn 0.1512 0.0486 0.9873
vn -0.1560 -0.0410 -0.9869
vn 0.0817 0.0447 -0.9956
vn 0.1292 -0.1259 -0.9836
vn 0.0391 0.0019 -0.9992
vn -0.0689 0.1138 0.9911
vn -0.0347 0.3928 0.9189
vn -0.1296 0.4156 0.9002
vn 0.0939 -0.0688 0.9932
vn 0.2228 -0.0931 -0.9704
vn 0.9758 -0.1400 0.1681
vn 0.6801 0.0215 -0.7327
vn 0.9866 0.0374 0.1585
vn 0.6146 -0.1572 0.7730
vn 0.5670 -0.1870 0.8021
vn 0.9505 -0.2849 0.1238
vn 0.8613 -0.5041 0.0636
vn 0.6005 -0.3455 0.7211
vn 0.5032 -0.5626 0.6559
vn 0.7067 -0.7068 -0.0301
vn 0.7039 -0.3415 -0.6228
vn 0.4549 -0.8804 0.1337
vn 0.5672 -0.5002 -0.6542
vn 0.3247 -0.9345 0.1457
vn 0.1380 -0.9709 0.1956
vn 0.1195 -0.9863 -0.1134
vn -0.0042 -0.6175 -0.7866
vn -0.0770 -0.9736 0.2147
vn -0.2440 -0.9509 0.1902
vn -0.4019 -0.9110 0.0924
vn -0.3367 -0.3955 0.8545
vn -0.6514 -0.7587 0.0068
vn -0.8296 -0.5566 0.0439
vn -0.2971 -0.2768 -0.9138
vn -0.4746 -0.3210 0.8196
vn -0.9550 -0.2875 0.0734
vn -0.5191 -0.0796 -0.8510
vn -0.3874 -0.2496 -0.8874
vn -0.9955 -0.0750 0.0573
vn -0.6105 -0.2096 0.7638
vn -0.9707 0.2340 0.0540
vn -0.9124 0.3379 0.2307
vn -0.5972 0.2334 0.7674
vn -0.8831 0.4410 0.1603
vn -0.8232 0.5416 0.1699
vn -0.4755 0.2150 -0.8530
vn -0.7298 0.6417 0.2359
vn -0.4547 0.2736 -0.8476
vn -0.5912 0.7311 0.3404
vn -0.4999 0.8547 0.1396
vn -0.2608 0.5593 -0.7868
vn -0.1128 0.6010 -0.7912
vn -0.2273 0.9607 0.1593
vn -0.2811 0.3983 0.8731
vn 0.0934 0.9606 0.2618
vn 0.0879 0.6516 -0.7534
vn 0.2787 0.6261 -0.7281
vn 0.2847 0.9470 0.1484
vn 0.5080 0.8613 0.0131
vn 0.3927 0.5526 -0.7351
vn 0.4659 0.4700 -0.7496
vn 0.6813 0.7263 0.0911
vn 0.5191 0.4227 0.7429
vn 0.7469 0.6359 0.1941
vn 0.4866 0.4353 -0.7574
vn 0.5267 0.4007 -0.7497
vn 0.7948 0.5790 0.1818
vn 0.4400 0.3824 0.8125
vn 0.4464 0.4280 0.7858
vn 0.8787 0.4443 0.1744
vn 0.9547 0.2501 0.1610
vn 0.6120 0.3283 -0.7195
vn 0.5138 0.3180 0.7967
vn 0.5829 0.1505 0.7985
vn 0.6183 -0.0295 0.7854
vn 0.6662 0.1842 -0.7226
vn 0.1223 -0.0302 -0.9920
vn 0.2237 -0.0266 0.9743
vn 0.3533 -0.1253 0.9270
vn 0.3712 -0.1916 0.9085
vn 0.2777 -0.2062 0.9383
vn 0.0232 0.0172 -0.9996
vn 0.0074 0.0358 -0.9993
vn 0.0196 0.0675 -0.9975
vn 0.1621 0.0357 0.9861
vn 0.1596 0.1447 0.9765
vn 0.1827 0.1145 -0.9765
vn 0.1780 0.1392 -0.9741
vn 0.1033 0.1115 -0.9883
vn -0.4284 0.2110 0.8786
vn 0.0464 0.0937 -0.9945
vn 0.0857 0.1141 -0.9897
vn 0.3616 0.2182 0.9064
vn 0.3186 0.3132 0.8947
vn 0.2153 0.2518 0.9435
vn 0.0109 0.0843 -0.9964
vn 0.0404 0.1874 -0.9814
vn 0.0500 0.0629 -0.9967
vn -0.2415 -0.2483 0.9381
vn 0.1146 0.1256 -0.9854
vn 0.0342 -0.0928 -0.9951
vn 0.0305 -0.0720 -0.9969
vn -0.0547 -0.1699 -0.9839
vn -0.0609 -0.0875 0.9943
vn -0.0252 0.0017 -0.9997
vn -0.0634 -0.0226 -0.9977
vn -0.1037 -0.0404 -0.9938
s 1
f 175/1/1 166/2/2 1/3/3
f 166/2/2 176/4/4 1/3/3
f 1/3/3 479/5/5 174/6/6
f 1/3/3 480/7/7 175/1/1
f 2/8/8 469/9/9 164/10/10
f 164/11/10 178/12/11 2/13/8
f 2/13/8 477/14/12 172/15/13
f 2/13/8 478/16/14 177/17/15
f 179/18/16 162/19/17 3/20/18
f 3/20/18 466/21/19 180/22/20
f 3/20/18 475/23/21 170/24/22
f 170/24/22 179/18/16 3/20/18
f 4/25/23 465/26/24 364/27/25
f 364/27/25 168/28/26 4/25/23
f 4/25/23 474/29/27 181/30/28
f 365/31/29 167/32/30 5/33/31
f 5/33/31 471/34/32 175/1/1
f 5/33/31 480/7/7 365/31/29
f 176/4/4 165/35/33 6/36/34
f 6/37/34 469/38/9 177/39/15
f 177/17/15 173/40/35 6/36/34
f 6/36/34 479/5/5 176/4/4
f 456/41/36 178/12/11 7/42/37
f 7/42/37 468/43/38 455/44/39
f 455/44/39 403/45/40 7/42/37
f 7/42/37 582/46/41 456/41/36
f 180/47/20 161/48/42 8/49/43
f 8/49/43 465/50/24 181/51/28
f 181/51/28 169/52/44 8/49/43
f 8/49/43 475/53/21 180/47/20
f 9/54/45 474/55/27 168/56/26
f 168/56/26 366/57/46 9/54/45
f 9/54/45 481/58/47 188/59/48
f 367/60/49 365/31/29 10/61/50
f 10/61/50 480/7/7 189/62/51
f 10/61/50 487/63/52 367/60/49
f 190/64/53 173/40/35 11/65/54
f 11/65/54 478/16/14 191/66/55
f 191/66/55 186/67/56 11/65/54
f 11/65/54 486/68/57 190/64/53
f 12/69/58 533/70/59 285/71/60
f 12/69/58 526/72/61 301/73/62
f 301/73/62 428/74/63 12/69/58
f 428/74/63 454/75/64 12/69/58
f 194/76/65 169/77/44 13/78/66
f 13/79/66 474/55/27 188/59/48
f 188/59/48 182/80/67 13/79/66
f 182/81/67 194/76/65 13/78/66
f 189/62/51 174/6/6 14/82/68
f 14/82/68 479/5/5 190/64/53
f 190/64/53 187/83/69 14/82/68
f 14/82/68 487/63/52 189/62/51
f 191/66/55 172/15/13 15/84/70
f 15/84/70 477/14/12 192/85/71
f 15/84/70 484/86/72 185/87/73
f 15/84/70 485/88/74 191/66/55
f 16/89/75 476/90/76 170/91/22
f 170/91/22 194/76/65 16/89/75
f 16/89/75 482/92/77 183/93/78
f 183/93/78 193/94/79 16/89/75
f 17/95/80 486/68/57 186/67/56
f 186/67/56 202/96/81 17/95/80
f 17/95/80 492/97/82 199/98/83
f 199/98/83 201/99/84 17/95/80
f 18/100/85 490/101/86 218/102/87
f 18/100/85 497/103/88 249/104/89
f 249/104/89 413/105/90 18/100/85
f 413/105/90 452/106/91 18/100/85
f 205/107/92 182/108/67 19/109/93
f 182/80/67 206/110/94 19/111/93
f 19/111/93 488/112/95 195/113/96
f 19/109/93 489/114/97 205/107/92
f 20/115/98 487/63/52 187/83/69
f 187/83/69 201/99/84 20/115/98
f 20/115/98 493/116/99 200/117/100
f 200/117/100 207/118/101 20/115/98
f 21/119/102 485/88/74 185/87/73
f 185/87/73 203/120/103 21/119/102
f 21/119/102 491/121/104 198/122/105
f 198/122/105 202/96/81 21/119/102
f 204/123/106 183/124/78 22/125/107
f 22/125/107 482/126/77 205/107/92
f 205/107/92 196/127/108 22/125/107
f 22/125/107 490/128/86 204/123/106
f 23/129/109 481/58/47 366/57/46
f 366/57/46 368/130/110 23/129/109
f 23/129/109 488/112/95 206/110/94
f 369/131/111 367/60/49 24/132/112
f 24/132/112 487/63/52 207/118/101
f 24/132/112 494/133/113 369/131/111
f 214/134/114 200/117/100 25/135/115
f 25/135/115 493/116/99 215/136/116
f 215/136/116 213/137/117 25/135/115
f 25/135/115 501/138/118 214/134/114
f 26/139/119 492/97/82 198/122/105
f 198/122/105 217/140/120 26/139/119
f 26/139/119 498/141/121 211/142/122
f 211/142/122 216/143/123 26/139/119
f 218/102/87 196/144/108 27/145/124
f 27/145/124 489/146/97 219/147/125
f 27/145/124 496/148/126 209/149/127
f 209/149/127 218/102/87 27/145/124
f 28/150/128 488/112/95 368/130/110
f 368/130/110 370/151/129 28/150/128
f 28/150/128 495/152/130 220/153/131
f 371/154/132 369/131/111 29/155/133
f 29/155/133 494/133/113 214/134/114
f 214/134/114 371/154/132 29/155/133
f 30/156/134 493/116/99 199/98/83
f 199/98/83 216/143/123 30/156/134
f 30/156/134 499/157/135 212/158/136
f 212/158/136 215/136/116 30/156/134
f 31/159/137 483/160/138 204/123/106
f 204/123/106 452/161/91 31/159/137
f 31/162/137 585/163/139 410/164/140
f 410/165/140 453/166/141 31/159/137
f 219/167/125 195/113/96 32/168/142
f 32/168/142 488/112/95 220/153/131
f 220/153/131 208/169/143 32/168/142
f 32/168/142 496/170/126 219/167/125
f 33/171/144 499/157/135 211/142/122
f 211/142/122 228/172/145 33/171/144
f 228/172/145 224/173/146 33/171/144
f 33/171/144 506/174/147 227/175/148
f 34/176/149 497/103/88 209/149/127
f 209/149/127 230/177/150 34/176/149
f 34/176/149 503/178/151 222/179/152
f 222/179/152 229/180/153 34/176/149
f 35/181/154 495/182/130 370/183/129
f 370/183/129 372/184/155 35/181/154
f 372/184/155 231/185/156 35/181/154
f 373/186/157 371/154/132 36/187/158
f 36/187/158 501/138/118 232/188/159
f 36/187/158 508/189/160 373/186/157
f 37/190/161 500/191/162 212/158/136
f 212/158/136 227/175/148 37/190/161
f 227/175/148 225/192/163 37/190/161
f 37/190/161 507/193/164 233/194/165
f 262/195/166 244/196/167 38/197/168
f 38/197/168 511/198/169 451/199/170
f 451/199/170 419/200/171 38/197/168
f 38/197/168 589/201/172 262/195/166
f 39/202/173 496/170/126 208/169/143
f 208/203/143 231/185/156 39/204/173
f 39/204/173 502/205/174 221/206/175
f 221/207/175 230/177/150 39/208/173
f 232/188/159 213/137/117 40/209/176
f 40/209/176 500/191/162 233/194/165
f 233/194/165 226/210/177 40/209/176
f 226/210/177 232/188/159 40/209/176
f 375/211/178 373/186/157 41/212/179
f 41/212/179 508/189/160 240/213/180
f 41/212/179 515/214/181 375/211/178
f 241/215/182 225/192/163 42/216/183
f 42/216/183 506/174/147 242/217/184
f 242/217/184 238/218/185 42/216/183
f 42/216/183 514/219/186 241/215/182
f 288/220/187 311/221/188 43/222/189
f 43/222/189 546/223/190 340/224/191
f 340/224/191 434/225/192 43/222/189
f 43/222/189 599/226/193 288/220/187
f 44/227/194 503/178/151 221/207/175
f 221/228/175 246/229/195 44/230/194
f 44/230/194 509/231/196 234/232/197
f 234/233/197 245/234/198 44/227/194
f 240/213/180 226/210/177 45/235/199
f 45/235/199 507/193/164 241/215/182
f 241/215/182 239/236/200 45/235/199
f 239/236/200 240/213/180 45/235/199
f 242/217/184 224/173/146 46/237/201
f 46/237/201 505/238/202 243/239/203
f 243/239/203 237/240/204 46/237/201
f 46/237/201 513/241/205 242/217/184
f 47/242/206 504/243/207 222/179/152
f 222/179/152 245/234/198 47/242/206
f 245/234/198 235/244/208 47/242/206
f 47/242/206 511/198/169 244/196/167
f 48/245/209 502/205/174 372/184/155
f 372/246/155 374/247/210 48/248/209
f 48/248/209 509/231/196 246/229/195
f 450/249/211 217/140/120 49/250/212
f 49/250/212 491/121/104 171/251/213
f 171/251/213 412/252/214 49/250/212
f 49/250/212 588/253/215 450/249/211
f 255/254/216 234/233/197 50/255/217
f 234/233/197 256/256/218 50/255/217
f 256/256/218 247/257/219 50/255/217
f 50/255/217 517/258/220 255/254/216
f 257/259/221 239/236/200 51/260/222
f 51/260/222 514/219/186 258/261/223
f 51/260/222 521/262/224 252/263/225
f 252/263/225 257/259/221 51/260/222
f 259/264/226 237/265/204 52/266/227
f 52/266/227 512/267/228 253/268/229
f 253/268/229 250/269/230 52/266/227
f 52/266/227 520/270/231 259/264/226
f 254/271/232 235/244/208 53/272/233
f 53/272/233 510/273/234 255/254/216
f 255/254/216 248/274/235 53/272/233
f 53/272/233 518/275/236 254/271/232
f 54/276/237 509/277/196 374/278/210
f 374/278/210 376/279/238 54/276/237
f 54/276/237 516/280/239 256/281/218
f 377/282/240 375/211/178 55/283/241
f 55/283/241 515/214/181 257/259/221
f 55/283/241 522/284/242 377/282/240
f 258/261/223 238/218/185 56/285/243
f 56/285/243 513/241/205 259/286/226
f 259/264/226 251/287/244 56/288/243
f 56/285/243 521/262/224 258/261/223
f 57/289/245 522/284/242 252/263/225
f 252/263/225 267/290/246 57/289/245
f 57/291/245 528/292/247 265/293/248
f 265/294/248 266/295/249 57/289/245
f 58/296/250 520/270/231 250/269/230
f 250/297/230 269/298/251 58/299/250
f 58/299/250 526/72/61 263/300/252
f 263/301/252 268/302/253 58/296/250
f 270/303/254 248/304/235 59/305/255
f 59/305/255 517/306/220 271/307/256
f 59/305/255 524/308/257 261/309/258
f 59/305/255 525/310/259 270/303/254
f 60/311/260 516/280/239 376/279/238
f 376/279/238 378/312/261 60/311/260
f 60/311/260 523/313/262 272/314/263
f 379/315/264 377/282/240 61/316/265
f 61/316/265 522/284/242 266/295/249
f 61/316/265 529/317/266 379/315/264
f 62/318/267 521/319/224 251/287/244
f 251/287/244 268/302/253 62/318/267
f 62/318/267 527/320/268 264/321/269
f 264/321/269 267/322/246 62/318/267
f 63/323/270 518/324/236 270/325/254
f 270/325/254 163/326/271 63/323/270
f 63/327/270 595/328/272 425/329/273
f 425/329/273 449/330/274 63/327/270
f 271/331/256 247/332/219 64/333/275
f 64/333/275 516/334/239 272/335/263
f 272/335/263 260/336/276 64/333/275
f 260/336/276 271/331/256 64/333/275
f 279/337/277 261/309/258 65/338/278
f 65/339/278 524/340/257 280/341/279
f 65/339/278 531/342/280 274/343/281
f 274/344/281 279/337/277 65/338/278
f 66/345/282 523/313/262 378/312/261
f 378/312/261 380/346/283 66/345/282
f 66/345/282 530/347/284 281/348/285
f 381/349/286 379/315/264 67/350/287
f 67/350/287 529/317/266 282/351/288
f 67/350/287 536/352/289 381/349/286
f 68/353/290 528/292/247 264/321/269
f 264/321/269 284/354/291 68/353/290
f 68/353/290 534/355/292 277/356/293
f 277/356/293 283/357/294 68/353/290
f 171/251/213 203/120/103 69/358/295
f 69/358/295 484/86/72 184/359/296
f 184/359/296 409/360/297 69/358/295
f 69/358/295 586/361/298 171/251/213
f 280/341/279 260/336/276 70/362/299
f 70/362/299 523/363/262 281/364/285
f 281/364/285 273/365/300 70/362/299
f 273/365/300 280/341/279 70/362/299
f 71/366/301 529/317/266 265/294/248
f 265/293/248 283/357/294 71/367/301
f 71/367/301 535/368/302 278/369/303
f 278/369/303 282/370/288 71/367/301
f 72/371/304 527/320/268 263/301/252
f 263/300/252 285/71/60 72/372/304
f 72/372/304 533/70/59 276/373/305
f 276/374/305 284/354/291 72/371/304
f 383/375/306 381/349/286 73/376/307
f 73/376/307 536/352/289 292/377/308
f 73/376/307 543/378/309 383/375/306
f 74/379/310 535/380/302 277/381/293
f 277/356/293 294/382/311 74/383/310
f 294/384/311 290/385/312 74/379/310
f 74/379/310 542/386/313 293/387/314
f 75/388/315 512/389/228 243/239/203
f 243/239/203 210/390/316 75/388/315
f 75/388/315 590/391/317 418/392/318
f 418/392/318 197/393/319 75/388/315
f 76/394/320 531/342/280 273/365/300
f 273/365/300 298/395/321 76/394/320
f 76/394/320 537/396/322 286/397/323
f 286/397/323 297/398/324 76/394/320
f 292/399/308 278/369/303 77/400/325
f 77/400/325 535/368/302 293/401/314
f 293/387/314 291/402/326 77/403/325
f 77/403/325 543/378/309 292/377/308
f 78/404/327 534/355/292 276/374/305
f 276/374/305 295/405/328 78/404/327
f 78/404/327 540/406/329 289/407/330
f 289/407/330 294/382/311 78/404/327
f 79/408/331 532/409/332 274/410/281
f 274/410/281 297/411/324 79/408/331
f 79/408/331 538/412/333 287/413/334
f 287/413/334 296/414/335 79/408/331
f 80/415/336 530/416/284 380/417/283
f 380/346/283 382/418/337 80/419/336
f 80/415/336 537/396/322 298/395/321
f 81/420/338 538/421/333 286/397/323
f 286/397/323 306/422/339 81/420/338
f 81/420/338 544/423/340 299/424/341
f 299/424/341 305/425/342 81/420/338
f 307/426/343 291/427/326 82/428/344
f 82/429/344 542/386/313 308/430/345
f 308/430/345 304/431/346 82/429/344
f 82/429/344 550/432/347 307/433/343
f 83/434/348 541/435/349 289/407/330
f 289/407/330 310/436/350 83/434/348
f 310/436/350 302/437/351 83/434/348
f 302/437/351 309/438/352 83/434/348
f 84/439/353 539/440/354 287/413/334
f 287/413/334 305/441/342 84/439/353
f 84/439/353 545/442/355 300/443/356
f 300/443/356 311/444/188 84/439/353
f 85/445/357 537/396/322 382/446/337
f 382/418/337 384/447/358 85/448/357
f 85/448/357 544/449/340 306/450/339
f 385/451/359 383/375/306 86/452/360
f 86/452/360 543/378/309 307/433/343
f 86/452/360 550/432/347 385/451/359
f 308/430/345 290/385/312 87/453/361
f 87/453/361 541/454/349 309/455/352
f 309/455/352 303/456/362 87/453/361
f 87/453/361 549/457/363 308/430/345
f 88/458/364 547/459/365 310/460/350
f 310/460/350 236/461/366 88/458/364
f 88/458/364 600/462/367 433/463/368
f 433/463/368 223/464/369 88/458/364
f 318/465/370 304/431/346 89/466/371
f 89/466/371 549/457/363 319/467/372
f 319/467/372 317/468/373 89/466/371
f 89/466/371 557/469/374 318/465/370
f 320/470/375 302/471/351 90/472/376
f 90/472/376 547/473/365 321/474/377
f 321/474/377 315/475/378 90/472/376
f 90/472/376 555/476/379 320/470/375
f 322/477/380 300/443/356 91/478/381
f 91/478/381 545/442/355 323/479/382
f 323/479/382 313/480/383 91/478/381
f 91/478/381 553/481/384 322/477/380
f 92/482/385 544/423/340 384/483/358
f 384/447/358 386/484/386 92/485/385
f 92/485/385 551/486/387 324/487/388
f 387/488/389 385/451/359 93/489/390
f 93/489/390 550/432/347 318/465/370
f 93/489/390 557/469/374 387/488/389
f 94/490/391 549/457/363 303/456/362
f 303/456/362 320/491/375 94/490/391
f 94/490/391 555/492/379 316/493/392
f 316/493/392 319/467/372 94/490/391
f 249/104/89 229/180/153 95/494/393
f 95/494/393 504/243/207 262/195/166
f 262/195/166 416/495/394 95/494/393
f 95/494/393 587/496/395 249/104/89
f 323/479/382 299/497/341 96/498/396
f 299/424/341 324/499/388 96/500/396
f 96/500/396 551/501/387 312/502/397
f 96/500/396 552/503/398 323/504/382
f 331/505/399 386/484/386 97/506/400
f 386/484/386 388/507/401 97/506/400
f 97/506/400 558/508/402 331/505/399
f 389/509/403 387/488/389 98/510/404
f 98/510/404 557/469/374 332/511/405
f 98/512/404 564/513/406 389/514/403
f 333/515/407 316/493/392 99/516/408
f 99/516/408 555/492/379 334/517/409
f 99/516/408 562/518/410 329/519/411
f 99/520/408 563/521/412 333/522/407
f 275/523/413 296/524/335 100/525/414
f 100/525/414 539/526/354 288/220/187
f 288/220/187 431/527/415 100/525/414
f 100/525/414 597/528/416 275/523/413
f 337/529/417 312/502/397 101/530/418
f 101/531/418 551/486/387 331/505/399
f 331/532/399 325/533/419 101/534/418
f 101/530/418 559/535/420 337/529/417
f 102/536/421 557/469/374 317/468/373
f 317/537/373 333/522/407 102/538/421
f 102/538/421 563/521/412 330/539/422
f 330/539/422 332/540/405 102/538/421
f 103/541/423 555/476/379 315/475/378
f 315/475/378 335/542/424 103/541/423
f 103/541/423 561/543/425 328/544/426
f 328/544/426 334/545/409 103/541/423
f 336/546/427 313/480/383 104/547/428
f 104/547/428 552/548/398 337/549/417
f 337/549/417 326/550/429 104/547/428
f 104/547/428 560/551/430 336/546/427
f 105/552/431 563/553/412 329/519/411
f 329/519/411 345/554/432 105/552/431
f 345/554/432 342/555/433 105/552/431
f 342/555/433 344/556/434 105/552/431
f 301/73/62 269/298/251 106/557/435
f 106/557/435 519/558/436 314/559/437
f 314/559/437 424/560/438 106/557/435
f 106/557/435 596/561/439 301/73/62
f 348/562/440 325/563/419 107/564/441
f 325/563/419 349/565/442 107/564/441
f 349/565/442 338/566/443 107/564/441
f 107/564/441 566/567/444 348/562/440
f 108/568/445 564/513/406 330/539/422
f 330/569/422 344/556/434 108/570/445
f 108/570/445 570/571/446 343/572/447
f 343/572/447 350/573/448 108/570/445
f 345/574/432 328/544/426 109/575/449
f 109/576/449 561/577/425 346/578/450
f 346/578/450 341/579/451 109/576/449
f 109/576/449 569/580/452 345/581/432
f 347/582/453 326/550/429 110/583/454
f 110/583/454 559/584/420 348/585/440
f 348/586/440 339/587/455 110/588/454
f 110/588/454 567/589/456 347/590/453
f 111/591/457 558/592/402 388/593/401
f 388/593/401 390/594/458 111/591/457
f 111/591/457 565/595/459 349/565/442
f 391/596/460 389/514/403 112/597/461
f 389/514/403 350/598/448 112/597/461
f 112/599/461 571/600/462 391/601/460
f 113/602/463 571/600/462 343/572/447
f 343/572/447 358/603/464 113/602/463
f 113/602/463 577/604/465 356/605/466
f 356/605/466 357/606/467 113/602/463
f 359/607/468 341/579/451 114/608/469
f 114/609/469 568/610/470 360/611/471
f 360/611/471 354/612/472 114/609/469
f 114/608/469 576/613/473 359/607/468
f 361/614/474 339/587/455 115/615/475
f 339/587/455 362/616/476 115/615/475
f 362/616/476 352/617/477 115/615/475
f 115/615/475 574/618/478 361/614/474
f 116/619/479 565/595/459 390/594/458
f 390/594/458 392/620/480 116/619/479
f 116/619/479 572/621/481 363/622/482
f 393/623/483 391/601/460 117/624/484
f 117/624/484 571/600/462 357/606/467
f 117/624/484 578/625/485 393/623/483
f 118/626/486 570/571/446 342/555/433
f 118/626/486 569/627/452 359/628/468
f 359/628/468 355/629/487 118/626/486
f 118/626/486 577/604/465 358/603/464
f 119/630/488 553/631/384 336/632/427
f 336/632/427 327/633/489 119/630/488
f 119/634/488 605/635/490 440/636/491
f 440/637/491 353/638/492 119/630/488
f 362/639/476 338/566/443 120/640/493
f 120/640/493 565/595/459 363/622/482
f 363/622/482 351/641/494 120/640/493
f 120/640/493 573/642/495 362/639/476
f 121/643/496 576/613/473 354/644/472
f 354/612/472 395/645/497 121/646/496
f 121/646/496 468/43/38 164/11/10
f 164/10/10 394/647/498 121/643/496
f 396/648/499 352/617/477 122/649/500
f 122/649/500 573/650/495 397/651/501
f 397/651/501 162/19/17 122/649/500
f 122/649/500 467/652/502 396/648/499
f 123/653/503 572/621/481 392/620/480
f 392/620/480 364/654/25 123/653/503
f 123/653/503 465/50/24 398/655/504
f 167/32/30 393/623/483 124/656/505
f 124/656/505 578/625/485 399/657/506
f 124/656/505 471/34/32 167/32/30
f 400/658/507 355/629/487 125/659/508
f 355/629/487 394/660/498 125/659/508
f 125/659/508 469/661/9 165/35/33
f 165/35/33 400/658/507 125/659/508
f 126/662/509 546/223/190 322/663/380
f 322/663/380 353/638/492 126/662/509
f 126/662/509 603/664/510 437/665/511
f 437/665/511 340/224/191 126/662/509
f 397/666/501 351/641/494 127/667/512
f 127/667/512 572/621/481 398/655/504
f 398/655/504 161/48/42 127/667/512
f 127/667/512 466/668/19 397/666/501
f 399/657/506 356/605/466 128/669/513
f 128/669/513 577/604/465 400/658/507
f 400/658/507 166/2/2 128/669/513
f 128/669/513 471/34/32 399/657/506
f 129/670/514 580/671/515 401/672/516
f 401/672/516 404/673/517 129/670/514
f 129/670/514 581/674/518 402/675/519
f 402/675/519 403/676/40 129/670/514
f 130/677/520 582/678/41 402/675/519
f 402/675/519 407/679/521 130/677/520
f 130/677/520 583/680/522 405/681/523
f 405/681/523 406/682/524 130/677/520
f 131/683/525 584/684/526 405/685/523
f 131/686/525 583/687/522 410/164/140
f 410/164/140 408/688/527 131/686/525
f 131/686/525 586/689/298 409/690/297
f 412/691/214 408/688/527 132/692/528
f 132/692/528 585/163/139 413/105/90
f 413/105/90 411/693/529 132/692/528
f 132/692/528 588/694/215 412/691/214
f 415/695/530 411/693/529 133/696/531
f 411/693/529 416/495/394 133/696/531
f 133/696/531 589/201/172 414/697/532
f 414/697/532 415/695/530 133/696/531
f 134/698/533 590/699/317 414/697/532
f 414/697/532 419/200/171 134/698/533
f 134/698/533 591/700/534 417/701/535
f 417/701/535 418/702/318 134/698/533
f 135/703/536 592/704/537 417/705/535
f 135/706/536 591/700/534 422/707/538
f 422/708/538 420/709/539 135/703/536
f 135/703/536 594/710/540 421/711/541
f 136/712/542 594/710/540 420/709/539
f 136/712/542 593/713/543 425/329/273
f 425/329/273 423/714/544 136/712/542
f 423/714/544 424/715/438 136/712/542
f 137/716/545 596/717/439 423/714/544
f 137/716/545 595/328/272 427/718/546
f 137/716/545 597/719/416 426/720/547
f 426/720/547 428/721/63 137/716/545
f 138/722/548 598/723/549 426/720/547
f 426/720/547 431/724/415 138/722/548
f 138/722/548 599/725/193 429/726/550
f 429/726/550 430/727/551 138/722/548
f 433/728/368 429/729/550 139/730/552
f 139/730/552 599/731/193 434/732/192
f 434/732/192 432/733/553 139/730/552
f 139/730/552 602/734/554 433/728/368
f 436/735/555 432/733/553 140/736/556
f 140/736/556 601/737/557 437/738/511
f 437/738/511 435/739/558 140/736/556
f 140/736/556 604/740/559 436/735/555
f 439/741/560 435/739/558 141/742/561
f 141/742/561 603/743/510 440/636/491
f 440/636/491 438/744/562 141/742/561
f 141/742/561 606/745/563 439/741/560
f 442/746/564 438/744/562 142/747/565
f 438/744/562 443/748/566 142/747/565
f 443/749/566 441/750/567 142/751/565
f 142/751/565 608/752/568 442/753/564
f 445/754/569 441/750/567 143/755/570
f 143/755/570 607/756/571 446/757/572
f 446/757/572 444/758/573 143/755/570
f 444/758/573 445/754/569 143/755/570
f 144/759/574 610/760/575 444/758/573
f 144/759/574 609/761/576 448/762/577
f 144/759/574 579/763/578 401/672/516
f 401/672/516 447/764/579 144/759/574
f 184/359/296 192/85/71 145/765/580
f 145/765/580 477/14/12 456/41/36
f 456/41/36 406/766/524 145/765/580
f 145/765/580 584/684/526 184/359/296
f 458/767/581 179/18/16 146/768/582
f 146/768/582 476/769/76 457/770/583
f 457/770/583 404/673/517 146/768/582
f 146/768/582 579/763/578 458/767/581
f 457/771/583 193/94/79 147/772/584
f 147/772/584 483/773/138 453/774/141
f 453/774/141 407/775/521 147/772/584
f 147/772/584 581/776/518 457/771/583
f 455/44/39 395/645/497 148/777/585
f 148/777/585 575/778/586 459/779/587
f 459/779/587 447/780/579 148/777/585
f 148/777/585 580/781/515 455/44/39
f 149/782/588 574/783/478 396/784/499
f 396/784/499 458/785/581 149/782/588
f 458/767/581 448/762/577 149/786/588
f 448/762/577 460/787/589 149/786/588
f 150/788/590 568/610/470 346/789/450
f 346/789/450 461/790/591 150/788/590
f 150/788/590 606/791/563 442/792/564
f 442/792/564 462/793/592 150/788/590
f 151/794/593 525/795/259 279/796/277
f 151/794/593 532/797/332 275/523/413
f 275/523/413 427/798/546 151/794/593
f 427/718/546 163/799/271 151/800/593
f 152/801/594 575/778/586 360/611/471
f 152/801/594 568/610/470 462/793/592
f 462/793/592 445/802/569 152/801/594
f 152/801/594 610/803/575 459/779/587
f 314/559/437 253/804/229 153/805/595
f 153/805/595 512/389/228 197/393/319
f 153/805/595 592/806/537 421/807/541
f 153/805/595 594/808/540 314/559/437
f 154/809/596 560/551/430 347/582/453
f 347/590/453 463/810/597 154/811/596
f 154/811/596 607/756/571 443/749/566
f 443/749/566 327/812/489 154/811/596
f 155/813/598 567/589/456 361/614/474
f 361/814/474 460/815/589 155/816/598
f 155/817/598 609/818/576 446/819/572
f 446/819/572 463/820/597 155/817/598
f 156/821/599 554/822/600 321/823/377
f 321/823/377 223/464/369 156/821/599
f 156/821/599 602/824/554 436/825/555
f 436/825/555 464/826/601 156/821/599
f 157/827/602 511/198/169 254/271/232
f 254/271/232 449/828/274 157/827/602
f 157/827/602 593/829/543 422/707/538
f 422/707/538 451/199/170 157/827/602
f 461/790/591 335/830/424 158/831/603
f 158/831/603 554/822/600 464/826/601
f 158/831/603 604/832/559 439/833/560
f 439/833/560 461/790/591 158/831/603
f 159/834/604 540/835/329 295/836/328
f 295/836/328 454/75/64 159/834/604
f 159/834/604 598/837/549 430/838/551
f 430/838/551 236/461/366 159/834/604
f 210/390/316 228/172/145 160/839/605
f 160/839/605 498/141/121 450/249/211
f 450/249/211 415/840/530 160/839/605
f 160/839/605 590/391/317 210/390/316
f 175/1/1 471/34/32 166/2/2
f 166/2/2 470/841/606 176/4/4
f 1/3/3 176/4/4 479/5/5
f 1/3/3 174/6/6 480/7/7
f 2/8/8 177/842/15 469/9/9
f 164/11/10 468/43/38 178/12/11
f 2/13/8 178/12/11 477/14/12
f 2/13/8 172/15/13 478/16/14
f 179/18/16 467/652/502 162/19/17
f 3/20/18 162/19/17 466/21/19
f 3/20/18 180/22/20 475/23/21
f 170/24/22 476/769/76 179/18/16
f 4/25/23 181/30/28 465/26/24
f 364/27/25 473/843/607 168/28/26
f 4/25/23 168/28/26 474/29/27
f 365/31/29 472/844/608 167/32/30
f 5/33/31 167/32/30 471/34/32
f 5/33/31 175/1/1 480/7/7
f 176/4/4 470/841/606 165/35/33
f 6/37/34 165/845/33 469/38/9
f 177/17/15 478/16/14 173/40/35
f 6/36/34 173/40/35 479/5/5
f 456/41/36 477/14/12 178/12/11
f 7/42/37 178/12/11 468/43/38
f 455/44/39 580/781/515 403/45/40
f 7/42/37 403/45/40 582/46/41
f 180/47/20 466/668/19 161/48/42
f 8/49/43 161/48/42 465/50/24
f 181/51/28 474/55/27 169/52/44
f 8/49/43 169/52/44 475/53/21
f 9/54/45 188/59/48 474/55/27
f 168/56/26 473/846/607 366/57/46
f 9/54/45 366/57/46 481/58/47
f 367/60/49 472/844/608 365/31/29
f 10/61/50 365/31/29 480/7/7
f 10/61/50 189/62/51 487/63/52
f 190/64/53 479/5/5 173/40/35
f 11/65/54 173/40/35 478/16/14
f 191/66/55 485/88/74 186/67/56
f 11/65/54 186/67/56 486/68/57
f 12/69/58 454/75/64 533/70/59
f 12/69/58 285/71/60 526/72/61
f 301/73/62 596/561/439 428/74/63
f 428/74/63 598/837/549 454/75/64
f 194/76/65 475/847/21 169/77/44
f 13/79/66 169/52/44 474/55/27
f 188/59/48 481/58/47 182/80/67
f 182/81/67 482/92/77 194/76/65
f 189/62/51 480/7/7 174/6/6
f 14/82/68 174/6/6 479/5/5
f 190/64/53 486/68/57 187/83/69
f 14/82/68 187/83/69 487/63/52
f 191/66/55 478/16/14 172/15/13
f 15/84/70 172/15/13 477/14/12
f 15/84/70 192/85/71 484/86/72
f 15/84/70 185/87/73 485/88/74
f 16/89/75 193/94/79 476/90/76
f 170/91/22 475/847/21 194/76/65
f 16/89/75 194/76/65 482/92/77
f 183/93/78 483/773/138 193/94/79
f 17/95/80 201/99/84 486/68/57
f 186/67/56 485/88/74 202/96/81
f 17/95/80 202/96/81 492/97/82
f 199/98/83 493/116/99 201/99/84
f 18/100/85 452/106/91 490/101/86
f 18/100/85 218/102/87 497/103/88
f 249/104/89 587/496/395 413/105/90
f 413/105/90 585/163/139 452/106/91
f 205/107/92 482/126/77 182/108/67
f 182/80/67 481/58/47 206/110/94
f 19/111/93 206/110/94 488/112/95
f 19/109/93 195/848/96 489/114/97
f 20/115/98 207/118/101 487/63/52
f 187/83/69 486/68/57 201/99/84
f 20/115/98 201/99/84 493/116/99
f 200/117/100 494/133/113 207/118/101
f 21/119/102 202/96/81 485/88/74
f 185/87/73 484/86/72 203/120/103
f 21/119/102 203/120/103 491/121/104
f 198/122/105 492/97/82 202/96/81
f 204/123/106 483/160/138 183/124/78
f 22/125/107 183/124/78 482/126/77
f 205/107/92 489/114/97 196/127/108
f 22/125/107 196/127/108 490/128/86
f 23/129/109 206/110/94 481/58/47
f 366/57/46 473/846/607 368/130/110
f 23/129/109 368/130/110 488/112/95
f 369/131/111 472/844/608 367/60/49
f 24/132/112 367/60/49 487/63/52
f 24/132/112 207/118/101 494/133/113
f 214/134/114 494/133/113 200/117/100
f 25/135/115 200/117/100 493/116/99
f 215/136/116 500/191/162 213/137/117
f 25/135/115 213/137/117 501/138/118
f 26/139/119 216/143/123 492/97/82
f 198/122/105 491/121/104 217/140/120
f 26/139/119 217/140/120 498/141/121
f 211/142/122 499/157/135 216/143/123
f 218/102/87 490/101/86 196/144/108
f 27/145/124 196/144/108 489/146/97
f 27/145/124 219/147/125 496/148/126
f 209/149/127 497/103/88 218/102/87
f 28/150/128 220/153/131 488/112/95
f 368/130/110 473/846/607 370/151/129
f 28/150/128 370/151/129 495/152/130
f 371/154/132 472/844/608 369/131/111
f 29/155/133 369/131/111 494/133/113
f 214/134/114 501/138/118 371/154/132
f 30/156/134 215/136/116 493/116/99
f 199/98/83 492/97/82 216/143/123
f 30/156/134 216/143/123 499/157/135
f 212/158/136 500/191/162 215/136/116
f 31/159/137 453/166/141 483/160/138
f 204/123/106 490/128/86 452/161/91
f 31/162/137 452/106/91 585/163/139
f 410/165/140 583/849/522 453/166/141
f 219/167/125 489/850/97 195/113/96
f 32/168/142 195/113/96 488/112/95
f 220/153/131 495/152/130 208/169/143
f 32/168/142 208/169/143 496/170/126
f 33/171/144 227/175/148 499/157/135
f 211/142/122 498/141/121 228/172/145
f 228/172/145 505/238/202 224/173/146
f 33/171/144 224/173/146 506/174/147
f 34/176/149 229/180/153 497/103/88
f 209/149/127 496/148/126 230/177/150
f 34/176/149 230/177/150 503/178/151
f 222/179/152 504/243/207 229/180/153
f 35/181/154 231/185/156 495/182/130
f 370/183/129 473/851/607 372/184/155
f 372/184/155 502/205/174 231/185/156
f 373/186/157 472/844/608 371/154/132
f 36/187/158 371/154/132 501/138/118
f 36/187/158 232/188/159 508/189/160
f 37/190/161 233/194/165 500/191/162
f 212/158/136 499/157/135 227/175/148
f 227/175/148 506/174/147 225/192/163
f 37/190/161 225/192/163 507/193/164
f 262/195/166 504/243/207 244/196/167
f 38/197/168 244/196/167 511/198/169
f 451/199/170 591/700/534 419/200/171
f 38/197/168 419/200/171 589/201/172
f 39/202/173 230/852/150 496/170/126
f 208/203/143 495/182/130 231/185/156
f 39/204/173 231/185/156 502/205/174
f 221/207/175 503/178/151 230/177/150
f 232/188/159 501/138/118 213/137/117
f 40/209/176 213/137/117 500/191/162
f 233/194/165 507/193/164 226/210/177
f 226/210/177 508/189/160 232/188/159
f 375/211/178 472/844/608 373/186/157
f 41/212/179 373/186/157 508/189/160
f 41/212/179 240/213/180 515/214/181
f 241/215/182 507/193/164 225/192/163
f 42/216/183 225/192/163 506/174/147
f 242/217/184 513/241/205 238/218/185
f 42/216/183 238/218/185 514/219/186
f 288/220/187 539/526/354 311/221/188
f 43/222/189 311/221/188 546/223/190
f 340/224/191 601/853/557 434/225/192
f 43/222/189 434/225/192 599/226/193
f 44/227/194 245/234/198 503/178/151
f 221/228/175 502/854/174 246/229/195
f 44/230/194 246/229/195 509/231/196
f 234/233/197 510/273/234 245/234/198
f 240/213/180 508/189/160 226/210/177
f 45/235/199 226/210/177 507/193/164
f 241/215/182 514/219/186 239/236/200
f 239/236/200 515/214/181 240/213/180
f 242/217/184 506/174/147 224/173/146
f 46/237/201 224/173/146 505/238/202
f 243/239/203 512/389/228 237/240/204
f 46/237/201 237/240/204 513/241/205
f 47/242/206 244/196/167 504/243/207
f 222/179/152 503/178/151 245/234/198
f 245/234/198 510/273/234 235/244/208
f 47/242/206 235/244/208 511/198/169
f 48/245/209 246/855/195 502/205/174
f 372/246/155 473/856/607 374/247/210
f 48/248/209 374/247/210 509/231/196
f 450/249/211 498/141/121 217/140/120
f 49/250/212 217/140/120 491/121/104
f 171/251/213 586/361/298 412/252/214
f 49/250/212 412/252/214 588/253/215
f 255/254/216 510/273/234 234/233/197
f 234/233/197 509/857/196 256/256/218
f 256/256/218 516/858/239 247/257/219
f 50/255/217 247/257/219 517/258/220
f 257/259/221 515/214/181 239/236/200
f 51/260/222 239/236/200 514/219/186
f 51/260/222 258/261/223 521/262/224
f 252/263/225 522/284/242 257/259/221
f 259/264/226 513/859/205 237/265/204
f 52/266/227 237/265/204 512/267/228
f 253/268/229 519/860/436 250/269/230
f 52/266/227 250/269/230 520/270/231
f 254/271/232 511/198/169 235/244/208
f 53/272/233 235/244/208 510/273/234
f 255/254/216 517/258/220 248/274/235
f 53/272/233 248/274/235 518/275/236
f 54/276/237 256/281/218 509/277/196
f 374/278/210 473/861/607 376/279/238
f 54/276/237 376/279/238 516/280/239
f 377/282/240 472/844/608 375/211/178
f 55/283/241 375/211/178 515/214/181
f 55/283/241 257/259/221 522/284/242
f 258/261/223 514/219/186 238/218/185
f 56/285/243 238/218/185 513/241/205
f 259/264/226 520/270/231 251/287/244
f 56/285/243 251/862/244 521/262/224
f 57/289/245 266/295/249 522/284/242
f 252/263/225 521/262/224 267/290/246
f 57/291/245 267/322/246 528/292/247
f 265/294/248 529/317/266 266/295/249
f 58/296/250 268/302/253 520/270/231
f 250/297/230 519/558/436 269/298/251
f 58/299/250 269/298/251 526/72/61
f 263/301/252 527/320/268 268/302/253
f 270/303/254 518/863/236 248/304/235
f 59/305/255 248/304/235 517/306/220
f 59/305/255 271/307/256 524/308/257
f 59/305/255 261/309/258 525/310/259
f 60/311/260 272/314/263 516/280/239
f 376/279/238 473/861/607 378/312/261
f 60/311/260 378/312/261 523/313/262
f 379/315/264 472/844/608 377/282/240
f 61/316/265 377/282/240 522/284/242
f 61/316/265 266/295/249 529/317/266
f 62/318/267 267/322/246 521/319/224
f 251/287/244 520/270/231 268/302/253
f 62/318/267 268/302/253 527/320/268
f 264/321/269 528/292/247 267/322/246
f 63/323/270 449/864/274 518/324/236
f 270/325/254 525/795/259 163/326/271
f 63/327/270 163/799/271 595/328/272
f 425/329/273 593/713/543 449/330/274
f 271/331/256 517/865/220 247/332/219
f 64/333/275 247/332/219 516/334/239
f 272/335/263 523/363/262 260/336/276
f 260/336/276 524/340/257 271/331/256
f 279/337/277 525/310/259 261/309/258
f 65/339/278 261/866/258 524/340/257
f 65/339/278 280/341/279 531/342/280
f 274/344/281 532/867/332 279/337/277
f 66/345/282 281/348/285 523/313/262
f 378/312/261 473/861/607 380/346/283
f 66/345/282 380/346/283 530/347/284
f 381/349/286 472/844/608 379/315/264
f 67/350/287 379/315/264 529/317/266
f 67/350/287 282/351/288 536/352/289
f 68/353/290 283/357/294 528/292/247
f 264/321/269 527/320/268 284/354/291
f 68/353/290 284/354/291 534/355/292
f 277/356/293 535/368/302 283/357/294
f 171/251/213 491/121/104 203/120/103
f 69/358/295 203/120/103 484/86/72
f 184/359/296 584/684/526 409/360/297
f 69/358/295 409/360/297 586/361/298
f 280/341/279 524/340/257 260/336/276
f 70/362/299 260/336/276 523/363/262
f 281/364/285 530/416/284 273/365/300
f 273/365/300 531/342/280 280/341/279
f 71/366/301 282/351/288 529/317/266
f 265/293/248 528/292/247 283/357/294
f 71/367/301 283/357/294 535/368/302
f 278/369/303 536/868/289 282/370/288
f 72/371/304 284/354/291 527/320/268
f 263/300/252 526/72/61 285/71/60
f 72/372/304 285/71/60 533/70/59
f 276/374/305 534/355/292 284/354/291
f 383/375/306 472/844/608 381/349/286
f 73/376/307 381/349/286 536/352/289
f 73/376/307 292/377/308 543/378/309
f 74/379/310 293/387/314 535/380/302
f 277/356/293 534/355/292 294/382/311
f 294/384/311 541/454/349 290/385/312
f 74/379/310 290/385/312 542/386/313
f 75/388/315 197/393/319 512/389/228
f 243/239/203 505/238/202 210/390/316
f 75/388/315 210/390/316 590/391/317
f 418/392/318 592/806/537 197/393/319
f 76/394/320 297/398/324 531/342/280
f 273/365/300 530/416/284 298/395/321
f 76/394/320 298/395/321 537/396/322
f 286/397/323 538/421/333 297/398/324
f 292/399/308 536/868/289 278/369/303
f 77/400/325 278/369/303 535/368/302
f 293/387/314 542/386/313 291/402/326
f 77/403/325 291/402/326 543/378/309
f 78/404/327 294/382/311 534/355/292
f 276/374/305 533/869/59 295/405/328
f 78/404/327 295/405/328 540/406/329
f 289/407/330 541/435/349 294/382/311
f 79/408/331 296/414/335 532/409/332
f 274/410/281 531/870/280 297/411/324
f 79/408/331 297/411/324 538/412/333
f 287/413/334 539/440/354 296/414/335
f 80/415/336 298/395/321 530/416/284
f 380/346/283 473/861/607 382/418/337
f 80/415/336 382/446/337 537/396/322
f 81/420/338 305/425/342 538/421/333
f 286/397/323 537/396/322 306/422/339
f 81/420/338 306/422/339 544/423/340
f 299/424/341 545/871/355 305/425/342
f 307/426/343 543/872/309 291/427/326
f 82/429/344 291/402/326 542/386/313
f 308/430/345 549/457/363 304/431/346
f 82/429/344 304/431/346 550/432/347
f 83/434/348 309/438/352 541/435/349
f 289/407/330 540/406/329 310/436/350
f 310/436/350 547/873/365 302/437/351
f 302/437/351 548/874/609 309/438/352
f 84/439/353 311/444/188 539/440/354
f 287/413/334 538/412/333 305/441/342
f 84/439/353 305/441/342 545/442/355
f 300/443/356 546/875/190 311/444/188
f 85/445/357 306/422/339 537/396/322
f 382/418/337 473/861/607 384/447/358
f 85/448/357 384/447/358 544/449/340
f 385/451/359 472/844/608 383/375/306
f 86/452/360 383/375/306 543/378/309
f 86/452/360 307/433/343 550/432/347
f 308/430/345 542/386/313 290/385/312
f 87/453/361 290/385/312 541/454/349
f 309/455/352 548/876/609 303/456/362
f 87/453/361 303/456/362 549/457/363
f 88/458/364 223/464/369 547/459/365
f 310/460/350 540/835/329 236/461/366
f 88/458/364 236/461/366 600/462/367
f 433/463/368 602/824/554 223/464/369
f 318/465/370 550/432/347 304/431/346
f 89/466/371 304/431/346 549/457/363
f 319/467/372 556/877/610 317/468/373
f 89/466/371 317/468/373 557/469/374
f 320/470/375 548/878/609 302/471/351
f 90/472/376 302/471/351 547/473/365
f 321/474/377 554/879/600 315/475/378
f 90/472/376 315/475/378 555/476/379
f 322/477/380 546/875/190 300/443/356
f 91/478/381 300/443/356 545/442/355
f 323/479/382 552/548/398 313/480/383
f 91/478/381 313/480/383 553/481/384
f 92/482/385 324/499/388 544/423/340
f 384/447/358 473/861/607 386/484/386
f 92/485/385 386/484/386 551/486/387
f 387/488/389 472/844/608 385/451/359
f 93/489/390 385/451/359 550/432/347
f 93/489/390 318/465/370 557/469/374
f 94/490/391 319/467/372 549/457/363
f 303/456/362 548/876/609 320/491/375
f 94/490/391 320/491/375 555/492/379
f 316/493/392 556/877/610 319/467/372
f 249/104/89 497/103/88 229/180/153
f 95/494/393 229/180/153 504/243/207
f 262/195/166 589/201/172 416/495/394
f 95/494/393 416/495/394 587/496/395
f 323/479/382 545/442/355 299/497/341
f 299/424/341 544/423/340 324/499/388
f 96/500/396 324/499/388 551/501/387
f 96/500/396 312/502/397 552/503/398
f 331/505/399 551/486/387 386/484/386
f 386/484/386 473/861/607 388/507/401
f 97/506/400 388/507/401 558/508/402
f 389/509/403 472/844/608 387/488/389
f 98/510/404 387/488/389 557/469/374
f 98/512/404 332/540/405 564/513/406
f 333/515/407 556/877/610 316/493/392
f 99/516/408 316/493/392 555/492/379
f 99/516/408 334/517/409 562/518/410
f 99/520/408 329/880/411 563/521/412
f 275/523/413 532/797/332 296/524/335
f 100/525/414 296/524/335 539/526/354
f 288/220/187 599/226/193 431/527/415
f 100/525/414 431/527/415 597/528/416
f 337/529/417 552/503/398 312/502/397
f 101/531/418 312/881/397 551/486/387
f 331/532/399 558/882/402 325/533/419
f 101/530/418 325/563/419 559/535/420
f 102/536/421 332/511/405 557/469/374
f 317/537/373 556/883/610 333/522/407
f 102/538/421 333/522/407 563/521/412
f 330/539/422 564/513/406 332/540/405
f 103/541/423 334/545/409 555/476/379
f 315/475/378 554/879/600 335/542/424
f 103/541/423 335/542/424 561/543/425
f 328/544/426 562/884/410 334/545/409
f 336/546/427 553/481/384 313/480/383
f 104/547/428 313/480/383 552/548/398
f 337/549/417 559/584/420 326/550/429
f 104/547/428 326/550/429 560/551/430
f 105/552/431 344/556/434 563/553/412
f 329/519/411 562/518/410 345/554/432
f 345/554/432 569/627/452 342/555/433
f 342/555/433 570/571/446 344/556/434
f 301/73/62 526/72/61 269/298/251
f 106/557/435 269/298/251 519/558/436
f 314/559/437 594/808/540 424/560/438
f 106/557/435 424/560/438 596/561/439
f 348/562/440 559/535/420 325/563/419
f 325/563/419 558/592/402 349/565/442
f 349/565/442 565/595/459 338/566/443
f 107/564/441 338/566/443 566/567/444
f 108/568/445 350/598/448 564/513/406
f 330/569/422 563/553/412 344/556/434
f 108/570/445 344/556/434 570/571/446
f 343/572/447 571/600/462 350/573/448
f 345/574/432 562/884/410 328/544/426
f 109/576/449 328/885/426 561/577/425
f 346/578/450 568/886/470 341/579/451
f 109/576/449 341/579/451 569/580/452
f 347/582/453 560/551/430 326/550/429
f 110/583/454 326/550/429 559/584/420
f 348/586/440 566/887/444 339/587/455
f 110/588/454 339/587/455 567/589/456
f 111/591/457 349/565/442 558/592/402
f 388/593/401 473/846/607 390/594/458
f 111/591/457 390/594/458 565/595/459
f 391/596/460 472/888/608 389/514/403
f 389/514/403 564/513/406 350/598/448
f 112/599/461 350/573/448 571/600/462
f 113/602/463 357/606/467 571/600/462
f 343/572/447 570/571/446 358/603/464
f 113/602/463 358/603/464 577/604/465
f 356/605/466 578/625/485 357/606/467
f 359/607/468 569/580/452 341/579/451
f 114/609/469 341/889/451 568/610/470
f 360/611/471 575/778/586 354/612/472
f 114/608/469 354/644/472 576/613/473
f 361/614/474 567/589/456 339/587/455
f 339/587/455 566/887/444 362/616/476
f 362/616/476 573/650/495 352/617/477
f 115/615/475 352/617/477 574/618/478
f 116/619/479 363/622/482 565/595/459
f 390/594/458 473/846/607 392/620/480
f 116/619/479 392/620/480 572/621/481
f 393/623/483 472/844/608 391/601/460
f 117/624/484 391/601/460 571/600/462
f 117/624/484 357/606/467 578/625/485
f 118/626/486 358/603/464 570/571/446
f 118/626/486 342/555/433 569/627/452
f 359/628/468 576/890/473 355/629/487
f 118/626/486 355/629/487 577/604/465
f 119/630/488 353/638/492 553/631/384
f 336/632/427 560/891/430 327/633/489
f 119/634/488 327/892/489 605/635/490
f 440/637/491 603/664/510 353/638/492
f 362/639/476 566/567/444 338/566/443
f 120/640/493 338/566/443 565/595/459
f 363/622/482 572/621/481 351/641/494
f 120/640/493 351/641/494 573/642/495
f 121/643/496 394/647/498 576/613/473
f 354/612/472 575/778/586 395/645/497
f 121/646/496 395/645/497 468/43/38
f 164/10/10 469/9/9 394/647/498
f 396/648/499 574/618/478 352/617/477
f 122/649/500 352/617/477 573/650/495
f 397/651/501 466/21/19 162/19/17
f 122/649/500 162/19/17 467/652/502
f 123/653/503 398/655/504 572/621/481
f 392/620/480 473/846/607 364/654/25
f 123/653/503 364/654/25 465/50/24
f 167/32/30 472/844/608 393/623/483
f 124/656/505 393/623/483 578/625/485
f 124/656/505 399/657/506 471/34/32
f 400/658/507 577/604/465 355/629/487
f 355/629/487 576/890/473 394/660/498
f 125/659/508 394/660/498 469/661/9
f 165/35/33 470/841/606 400/658/507
f 126/662/509 340/224/191 546/223/190
f 322/663/380 553/631/384 353/638/492
f 126/662/509 353/638/492 603/664/510
f 437/665/511 601/853/557 340/224/191
f 397/666/501 573/642/495 351/641/494
f 127/667/512 351/641/494 572/621/481
f 398/655/504 465/50/24 161/48/42
f 127/667/512 161/48/42 466/668/19
f 399/657/506 578/625/485 356/605/466
f 128/669/513 356/605/466 577/604/465
f 400/658/507 470/841/606 166/2/2
f 128/669/513 166/2/2 471/34/32
f 129/670/514 403/676/40 580/671/515
f 401/672/516 579/763/578 404/673/517
f 129/670/514 404/673/517 581/674/518
f 402/675/519 582/678/41 403/676/40
f 130/677/520 406/682/524 582/678/41
f 402/675/519 581/674/518 407/679/521
f 130/677/520 407/679/521 583/680/522
f 405/681/523 584/893/526 406/682/524
f 131/683/525 409/360/297 584/684/526
f 131/686/525 405/894/523 583/687/522
f 410/164/140 585/163/139 408/688/527
f 131/686/525 408/688/527 586/689/298
f 412/691/214 586/689/298 408/688/527
f 132/692/528 408/688/527 585/163/139
f 413/105/90 587/496/395 411/693/529
f 132/692/528 411/693/529 588/694/215
f 415/695/530 588/694/215 411/693/529
f 411/693/529 587/496/395 416/495/394
f 133/696/531 416/495/394 589/201/172
f 414/697/532 590/699/317 415/695/530
f 134/698/533 418/702/318 590/699/317
f 414/697/532 589/201/172 419/200/171
f 134/698/533 419/200/171 591/700/534
f 417/701/535 592/895/537 418/702/318
f 135/703/536 421/711/541 592/704/537
f 135/706/536 417/701/535 591/700/534
f 422/708/538 593/713/543 420/709/539
f 135/703/536 420/709/539 594/710/540
f 136/712/542 424/715/438 594/710/540
f 136/712/542 420/709/539 593/713/543
f 425/329/273 595/328/272 423/714/544
f 423/714/544 596/717/439 424/715/438
f 137/716/545 428/721/63 596/717/439
f 137/716/545 423/714/544 595/328/272
f 137/716/545 427/718/546 597/719/416
f 426/720/547 598/723/549 428/721/63
f 138/722/548 430/727/551 598/723/549
f 426/720/547 597/719/416 431/724/415
f 138/722/548 431/724/415 599/725/193
f 429/726/550 600/896/367 430/727/551
f 433/728/368 600/897/367 429/729/550
f 139/730/552 429/729/550 599/731/193
f 434/732/192 601/737/557 432/733/553
f 139/730/552 432/733/553 602/734/554
f 436/735/555 602/734/554 432/733/553
f 140/736/556 432/733/553 601/737/557
f 437/738/511 603/743/510 435/739/558
f 140/736/556 435/739/558 604/740/559
f 439/741/560 604/740/559 435/739/558
f 141/742/561 435/739/558 603/743/510
f 440/636/491 605/635/490 438/744/562
f 141/742/561 438/744/562 606/745/563
f 442/746/564 606/745/563 438/744/562
f 438/744/562 605/635/490 443/748/566
f 443/749/566 607/756/571 441/750/567
f 142/751/565 441/750/567 608/752/568
f 445/754/569 608/752/568 441/750/567
f 143/755/570 441/750/567 607/756/571
f 446/757/572 609/761/576 444/758/573
f 444/758/573 610/760/575 445/754/569
f 144/759/574 447/764/579 610/760/575
f 144/759/574 444/758/573 609/761/576
f 144/759/574 448/762/577 579/763/578
f 401/672/516 580/671/515 447/764/579
f 184/359/296 484/86/72 192/85/71
f 145/765/580 192/85/71 477/14/12
f 456/41/36 582/46/41 406/766/524
f 145/765/580 406/766/524 584/684/526
f 458/767/581 467/652/502 179/18/16
f 146/768/582 179/18/16 476/769/76
f 457/770/583 581/674/518 404/673/517
f 146/768/582 404/673/517 579/763/578
f 457/771/583 476/90/76 193/94/79
f 147/772/584 193/94/79 483/773/138
f 453/774/141 583/898/522 407/775/521
f 147/772/584 407/775/521 581/776/518
f 455/44/39 468/43/38 395/645/497
f 148/777/585 395/645/497 575/778/586
f 459/779/587 610/803/575 447/780/579
f 148/777/585 447/780/579 580/781/515
f 149/782/588 460/815/589 574/783/478
f 396/784/499 467/899/502 458/785/581
f 458/767/581 579/763/578 448/762/577
f 448/762/577 609/761/576 460/787/589
f 150/788/590 462/793/592 568/610/470
f 346/789/450 561/900/425 461/790/591
f 150/788/590 461/790/591 606/791/563
f 442/792/564 608/901/568 462/793/592
f 151/794/593 163/326/271 525/795/259
f 151/794/593 279/796/277 532/797/332
f 275/523/413 597/528/416 427/798/546
f 427/718/546 595/328/272 163/799/271
f 152/801/594 459/779/587 575/778/586
f 152/801/594 360/611/471 568/610/470
f 462/793/592 608/901/568 445/802/569
f 152/801/594 445/802/569 610/803/575
f 314/559/437 519/558/436 253/804/229
f 153/805/595 253/804/229 512/389/228
f 153/805/595 197/393/319 592/806/537
f 153/805/595 421/807/541 594/808/540
f 154/809/596 327/902/489 560/551/430
f 347/590/453 567/589/456 463/810/597
f 154/811/596 463/810/597 607/756/571
f 443/749/566 605/903/490 327/812/489
f 155/813/598 463/810/597 567/589/456
f 361/814/474 574/783/478 460/815/589
f 155/817/598 460/904/589 609/818/576
f 446/819/572 607/905/571 463/820/597
f 156/821/599 464/826/601 554/822/600
f 321/823/377 547/459/365 223/464/369
f 156/821/599 223/464/369 602/824/554
f 436/825/555 604/832/559 464/826/601
f 157/827/602 451/199/170 511/198/169
f 254/271/232 518/275/236 449/828/274
f 157/827/602 449/828/274 593/829/543
f 422/707/538 591/700/534 451/199/170
f 461/790/591 561/900/425 335/830/424
f 158/831/603 335/830/424 554/822/600
f 158/831/603 464/826/601 604/832/559
f 439/833/560 606/791/563 461/790/591
f 159/834/604 236/461/366 540/835/329
f 295/836/328 533/70/59 454/75/64
f 159/834/604 454/75/64 598/837/549
f 430/838/551 600/462/367 236/461/366
f 210/390/316 505/238/202 228/172/145
f 160/839/605 228/172/145 498/141/121
f 450/249/211 588/253/215 415/840/530
f 160/839/605 415/840/530 590/391/317
